# 3ds Max Wavefront OBJ Exporter v0.97b - (c)2007 guruware
# File Created: 21.03.2020 16:28:23

mtllib LargeRock_low.mtl

#
# object LargeRock_Low
#

v  0.5496 0.8792 1.2184
v  0.6806 0.7295 1.1719
v  0.6935 1.1436 1.2671
v  0.6062 1.0711 1.2390
v  0.5731 1.2452 1.1976
v  0.4689 0.9985 1.1746
v  0.6658 1.3128 1.2314
v  1.1606 1.0951 0.4604
v  0.9906 1.0014 0.8497
v  0.9833 0.7082 0.6901
v  1.1224 0.8829 0.3634
v  1.0648 0.5165 0.3327
v  1.1718 0.7984 0.1556
v  1.4265 1.3429 -0.4566
v  1.3684 1.4209 -0.5010
v  1.3907 1.4771 -0.4122
v  1.4381 1.3660 -0.3727
v  1.4427 1.2321 -0.3629
v  1.4073 1.2393 -0.4655
v  1.3105 1.3007 -0.5368
v  0.2343 1.5441 -1.3374
v  0.5258 1.3037 -1.2268
v  0.3328 1.1876 -1.2538
v  0.1285 1.3714 -1.3209
v  -0.1558 1.4052 -1.3325
v  -0.1713 1.5894 -1.3529
v  -0.1025 1.1087 -1.2800
v  -0.1436 2.5276 0.0730
v  -0.2865 2.4623 0.0136
v  -0.2648 2.3462 0.1844
v  -0.0679 2.4859 0.1926
v  0.0736 2.5308 0.1545
v  -0.0144 2.5611 -0.0161
v  -0.2102 2.4929 -0.1123
v  -1.1473 1.4393 0.5848
v  -1.1807 1.2317 0.7228
v  -0.8858 1.5907 0.7413
v  -0.9320 1.6615 0.5800
v  -1.2386 1.4147 0.3212
v  -1.3610 1.2323 0.3960
v  -0.4116 1.7506 -1.1914
v  -0.5318 1.8379 -1.0175
v  -0.2141 1.8542 -1.0963
v  -0.1823 1.7274 -1.2660
v  -0.5515 1.6188 -1.2476
v  -0.7187 1.7619 -1.0188
v  -1.2236 0.7722 -0.3338
v  -1.2745 0.8259 0.0248
v  -1.3979 1.0606 -0.0768
v  -1.2598 0.9085 -0.5194
v  -1.0370 0.6035 -0.7999
v  -1.0939 0.5144 -0.4448
v  -1.1096 0.4703 0.1328
v  0.5822 1.9863 0.3253
v  0.6717 2.0600 -0.0176
v  0.3801 2.2562 0.1763
v  0.4357 2.0747 0.4638
v  0.7610 1.7830 0.4439
v  0.9606 1.7823 0.0410
v  0.5556 1.8806 0.7003
v  0.7494 0.4163 0.8743
v  0.8453 0.5009 0.8545
v  0.7765 0.7959 1.0985
v  0.3507 0.5703 1.1303
v  0.4606 0.4532 1.0566
v  0.5774 0.3481 0.8642
v  -0.9069 1.8005 -0.2874
v  -0.8809 1.6012 -0.8970
v  -1.1431 1.2999 -0.6833
v  -1.2237 1.4287 -0.2237
v  -0.6024 2.1627 -0.1190
v  -0.5322 2.2925 -0.2881
v  -0.7609 1.9842 -0.6551
v  -0.9512 1.7081 0.2395
v  0.4238 0.0338 -0.5453
v  0.1847 0.0366 -0.5795
v  0.1871 0.0516 -0.7894
v  0.5563 0.0392 -0.6406
v  0.7616 0.0437 -0.3918
v  0.5427 0.0279 -0.3192
v  0.1790 0.0258 -0.3002
v  -0.3774 0.0034 -0.4699
v  -0.1236 0.0243 -0.5525
v  -0.1461 0.0078 -0.2434
v  -0.4267 -0.0094 -0.2372
v  -0.4520 0.0095 -0.5798
v  -0.2010 0.0382 -0.7701
v  -0.6290 -0.0143 -0.2877
v  1.1747 0.3527 -0.2300
v  1.0629 0.1808 -0.1123
v  0.9876 0.1743 -0.4870
v  1.0628 0.3452 -0.6332
v  0.6867 0.1299 -0.8537
v  0.6966 0.2499 -0.9292
v  1.2698 0.6889 -0.5203
v  1.3090 0.6509 -0.3557
v  0.9852 0.5771 -0.8459
v  1.1469 0.7813 -0.6701
v  0.6670 0.4291 -1.0069
v  -1.2677 1.0806 -0.6476
v  -0.6830 1.1248 -1.1334
v  -0.7519 0.7502 -1.0708
v  -0.4766 0.3764 -1.0923
v  -0.8462 0.2916 -0.8194
v  0.0046 0.7276 -1.2206
v  0.1299 0.3783 -1.1445
v  -0.3672 -0.0062 0.3669
v  -0.4466 -0.0169 0.5307
v  -0.6627 -0.0103 0.1539
v  -0.4489 -0.0092 0.1238
v  -0.0754 0.0181 0.4475
v  -0.1212 0.0286 0.7168
v  -0.1510 0.0066 0.1049
v  0.2175 0.0243 0.0305
v  0.2994 0.0469 0.3720
v  0.6160 0.0165 -0.0691
v  0.6410 0.0320 0.2305
v  0.6644 0.1631 0.5613
v  0.3183 0.1427 0.6589
v  0.2273 0.2299 0.8646
v  -0.2019 0.0440 0.8466
v  0.1178 0.2819 1.0103
v  -0.2882 0.0884 0.9250
v  -0.6612 0.0237 0.6551
v  -0.5693 -0.0158 0.6097
v  -0.8868 0.0245 0.1739
v  -0.7827 -0.0028 0.1658
v  -0.8463 0.0318 -0.3590
v  -0.7476 -0.0084 -0.3232
v  -0.6534 0.0605 -0.7293
v  -0.5675 0.0202 -0.6693
v  -0.3264 0.0971 -0.9691
v  -0.2651 0.0509 -0.8840
v  0.1739 0.1259 -1.0272
v  0.1817 0.0690 -0.9227
v  0.6436 0.0600 -0.7673
v  0.8922 0.0837 -0.4377
v  0.9722 0.0706 -0.1090
v  0.8323 0.0249 -0.0993
v  0.9370 0.1056 0.2033
v  0.8264 0.0422 0.2253
v  0.9144 0.2505 0.5138
v  0.8062 0.1946 0.5514
v  1.0257 0.2321 0.1534
v  0.9888 0.3522 0.4484
v  0.9090 0.5825 0.7981
v  0.8506 0.8694 1.0230
v  1.0381 1.1979 0.8634
v  0.8670 1.1448 1.1097
v  0.7799 1.1471 1.2235
v  0.8386 1.3150 1.1128
v  0.7447 1.3189 1.2078
v  0.7665 1.4533 1.0471
v  0.6787 1.4550 1.1326
v  0.5927 1.4271 1.1714
v  0.5857 1.6571 1.0002
v  0.4744 1.6462 1.0640
v  0.3525 1.5825 1.0376
v  0.5039 1.3452 1.1457
v  0.1884 1.4783 0.9940
v  0.3516 1.1781 1.0987
v  -0.1555 1.3420 0.9357
v  0.0737 0.9531 1.0443
v  0.2369 0.7197 1.1035
v  -0.3043 0.7991 0.9477
v  -0.1212 0.5094 1.0171
v  -0.0067 0.3794 1.0486
v  -0.4545 0.3519 0.9096
v  -0.3742 0.1887 0.9381
v  -0.7601 0.2452 0.6969
v  -0.7164 0.1142 0.6792
v  -1.0087 0.2092 0.1742
v  -0.9593 0.0975 0.1772
v  -0.9907 0.2420 -0.4111
v  -0.9223 0.1147 -0.3860
v  -0.7322 0.1416 -0.7761
v  -0.3798 0.1878 -1.0287
v  0.1612 0.2252 -1.0936
v  -0.9554 0.4969 0.6108
v  -0.6640 0.6505 0.8241
v  -0.9623 0.9566 0.7615
v  -1.1862 0.8571 0.5247
v  -1.1157 1.1366 0.7350
v  -1.3233 1.0574 0.4419
v  -1.3955 1.2169 -0.1419
v  -0.5970 1.1971 0.8534
v  -0.7749 1.4509 0.7923
v  -0.3736 1.7102 0.8383
v  -0.4721 1.8806 0.7892
v  -0.0078 1.8218 0.8799
v  -0.1291 2.0752 0.7737
v  -0.2029 2.1920 0.4982
v  -0.5197 1.9615 0.6056
v  -0.5717 2.0119 0.2142
v  0.0687 2.1755 0.7529
v  -0.0173 2.3339 0.4537
v  0.1843 2.2018 0.7168
v  0.1220 2.3860 0.4229
v  0.2867 2.1622 0.6294
v  0.2336 2.3424 0.3358
v  0.1983 2.4825 0.0887
v  0.3587 2.3815 -0.0781
v  0.2836 2.4539 -0.2492
v  0.0715 2.5372 -0.0943
v  0.1585 2.3978 -0.3816
v  -0.0989 2.4578 -0.2213
v  -0.0179 2.2571 -0.5376
v  -0.3335 2.2788 -0.4062
v  -0.1922 2.0475 -0.8175
v  -0.5624 2.0254 -0.7141
v  0.3189 2.0162 -0.8868
v  0.2714 1.8412 -1.0993
v  0.4703 2.1532 -0.6870
v  0.9480 1.8429 -0.7194
v  0.8584 1.7301 -0.8185
v  0.5787 2.2366 -0.5730
v  1.0049 1.9070 -0.6208
v  1.2748 1.6175 -0.4853
v  1.2391 1.5472 -0.5759
v  0.6471 2.2450 -0.4407
v  1.0040 1.9035 -0.4827
v  1.2423 1.6345 -0.3660
v  1.3597 1.4969 -0.3063
v  0.9851 1.8733 -0.3041
v  1.1934 1.6362 -0.1824
v  1.3096 1.5144 -0.1179
v  1.3764 1.3960 -0.0718
v  1.4212 1.3779 -0.2723
v  1.1181 1.6120 0.2083
v  1.2106 1.5279 0.2917
v  1.2650 1.4213 0.3647
v  1.2342 1.2825 0.4106
v  1.3628 1.2575 -0.0292
v  0.9797 1.4841 0.7875
v  1.0399 1.3579 0.8542
v  0.8880 1.6046 0.6750
v  0.6867 1.6416 0.8999
v  0.4486 1.9306 0.8315
v  0.3390 1.9471 0.9150
v  0.2022 1.8989 0.9164
v  1.4205 1.2382 -0.2457
v  1.3028 1.0924 0.0199
v  1.3682 1.0480 -0.2120
v  1.4054 1.0372 -0.3482
v  1.2737 0.7076 -0.1759
v  1.1474 0.4271 0.0202
v  1.3561 1.0527 -0.4703
v  1.2456 1.1069 -0.5739
v  0.9213 1.0179 -0.9207
v  1.0580 1.2347 -0.7374
v  1.1674 1.4332 -0.6351
v  0.7275 1.5474 -0.9911
v  0.6254 1.4006 -1.1590
v  0.2597 1.6823 -1.2694
v  0.7932 0.8943 -1.0623
v  0.5496 0.7959 -1.1375
v  0.6614 2.1766 -0.2825
v  -0.5995 1.4142 -1.2118
# 258 vertices

vn -0.1465 -0.1012 0.9840
vn 0.3798 -0.3751 0.8456
vn 0.0850 0.0279 0.9960
vn -0.4359 0.0536 0.8984
vn -0.4503 0.1338 0.8828
vn -0.3995 0.0915 0.9121
vn -0.0698 0.3197 0.9450
vn 0.9053 -0.2864 0.3137
vn 0.8717 -0.2425 0.4259
vn 0.9189 -0.2126 0.3323
vn 0.9182 -0.2591 0.2997
vn 0.9327 -0.1898 0.3066
vn 0.9244 -0.2034 0.3227
vn 0.8862 0.0898 -0.4545
vn 0.6967 0.2227 -0.6819
vn 0.8706 0.4713 -0.1413
vn 0.9765 0.2151 -0.0125
vn 0.9938 -0.0849 -0.0724
vn 0.7777 -0.1493 -0.6107
vn 0.5642 -0.0290 -0.8251
vn 0.2535 0.1451 -0.9564
vn 0.3915 -0.0396 -0.9193
vn 0.1661 -0.1820 -0.9692
vn 0.0508 -0.2276 -0.9724
vn -0.1236 -0.1561 -0.9800
vn -0.0921 0.2148 -0.9723
vn -0.0859 -0.1833 -0.9793
vn -0.3519 0.8994 0.2593
vn -0.6152 0.7671 0.1819
vn -0.5771 0.6601 0.4808
vn -0.3119 0.8053 0.5043
vn 0.1566 0.9456 0.2852
vn -0.0251 0.9963 -0.0819
vn -0.3093 0.9173 -0.2509
vn -0.7346 0.5367 0.4150
vn -0.6535 0.0077 0.7569
vn -0.4858 0.4484 0.7503
vn -0.6297 0.7173 0.2981
vn -0.7630 0.6404 0.0884
vn -0.9357 0.2419 0.2568
vn -0.2083 0.7349 -0.6454
vn -0.2532 0.7977 -0.5473
vn -0.0910 0.8044 -0.5871
vn -0.0561 0.6664 -0.7434
vn -0.4714 0.2657 -0.8410
vn -0.5814 0.5527 -0.5971
vn -0.9151 -0.3939 -0.0862
vn -0.9038 -0.4225 0.0675
vn -0.9775 -0.2096 -0.0216
vn -0.9086 -0.3433 -0.2379
vn -0.7899 -0.2439 -0.5627
vn -0.9124 -0.3767 -0.1599
vn -0.9235 -0.3587 0.1358
vn 0.6577 0.6942 0.2926
vn 0.6428 0.7053 0.2991
vn 0.6776 0.6776 0.2857
vn 0.6796 0.6844 0.2639
vn 0.6139 0.7426 0.2677
vn 0.5997 0.7553 0.2642
vn 0.6746 0.6805 0.2861
vn 0.4273 -0.6439 0.6347
vn 0.7049 -0.4187 0.5726
vn 0.7458 -0.2697 0.6091
vn -0.0388 -0.2750 0.9607
vn 0.2728 -0.6053 0.7478
vn 0.2690 -0.7770 0.5691
vn -0.7926 0.6074 -0.0530
vn -0.7860 0.3795 -0.4880
vn -0.7858 0.3621 -0.5013
vn -0.7806 0.6048 -0.1575
vn -0.7636 0.5971 0.2458
vn -0.5757 0.8061 -0.1369
vn -0.7092 0.6187 -0.3380
vn -0.6597 0.7442 0.1046
vn 0.0003 -0.9992 -0.0398
vn 0.0156 -0.9983 -0.0560
vn 0.0195 -0.9943 -0.1047
vn 0.0499 -0.9957 -0.0783
vn 0.1618 -0.9806 -0.1105
vn 0.0298 -0.9984 -0.0489
vn 0.0288 -0.9993 -0.0236
vn 0.0383 -0.9974 -0.0608
vn 0.0453 -0.9968 -0.0654
vn 0.0561 -0.9981 -0.0249
vn 0.0443 -0.9988 -0.0189
vn 0.0140 -0.9950 -0.0992
vn 0.0314 -0.9939 -0.1055
vn -0.0079 -0.9994 -0.0351
vn 0.8734 -0.4869 -0.0111
vn 0.8186 -0.5707 0.0645
vn 0.7033 -0.6621 -0.2588
vn 0.7429 -0.4884 -0.4578
vn 0.4760 -0.6417 -0.6014
vn 0.4800 -0.3904 -0.7856
vn 0.8443 -0.2391 -0.4796
vn 0.9352 -0.3506 -0.0494
vn 0.6846 -0.2374 -0.6892
vn 0.7501 -0.0295 -0.6607
vn 0.3978 -0.2555 -0.8812
vn -0.8446 0.0125 -0.5353
vn -0.4990 -0.0682 -0.8639
vn -0.4667 -0.1589 -0.8700
vn -0.2736 -0.2704 -0.9230
vn -0.6422 -0.4855 -0.5931
vn -0.0191 -0.1912 -0.9814
vn 0.0982 -0.2360 -0.9668
vn 0.0905 -0.9957 -0.0194
vn 0.0616 -0.9976 0.0310
vn -0.0346 -0.9994 0.0052
vn 0.0266 -0.9996 0.0029
vn 0.0789 -0.9962 0.0367
vn 0.1860 -0.9686 0.1652
vn 0.0519 -0.9986 0.0101
vn 0.0217 -0.9994 0.0269
vn 0.0756 -0.9783 0.1929
vn 0.0119 -0.9999 0.0001
vn 0.0453 -0.9807 0.1903
vn 0.2011 -0.8719 0.4464
vn 0.2145 -0.8974 0.3855
vn 0.3008 -0.8141 0.4968
vn 0.1558 -0.8852 0.4384
vn 0.1673 -0.6109 0.7738
vn -0.1260 -0.6364 0.7610
vn -0.4763 -0.7469 0.4640
vn -0.1291 -0.9694 0.2088
vn -0.5229 -0.8470 0.0959
vn -0.1721 -0.9847 0.0277
vn -0.5357 -0.8237 -0.1859
vn -0.2075 -0.9744 -0.0869
vn -0.3676 -0.8348 -0.4098
vn -0.1326 -0.9660 -0.2218
vn -0.1707 -0.7641 -0.6221
vn -0.0372 -0.9512 -0.3063
vn 0.1042 -0.7104 -0.6960
vn 0.0561 -0.9410 -0.3337
vn 0.2659 -0.9101 -0.3179
vn 0.4514 -0.8688 -0.2035
vn 0.5778 -0.8161 -0.0099
vn 0.1841 -0.9825 -0.0266
vn 0.6829 -0.6850 0.2537
vn 0.2925 -0.9248 0.2433
vn 0.7041 -0.5671 0.4274
vn 0.3809 -0.7819 0.4935
vn 0.8624 -0.4421 0.2468
vn 0.8922 -0.3179 0.3209
vn 0.8586 -0.2554 0.4444
vn 0.8145 -0.2303 0.5325
vn 0.8773 -0.1107 0.4669
vn 0.8079 -0.0624 0.5861
vn 0.6339 -0.0340 0.7727
vn 0.6939 0.3411 0.6342
vn 0.4653 0.3856 0.7968
vn 0.5665 0.6107 0.5532
vn 0.3755 0.6028 0.7040
vn -0.1326 0.3851 0.9133
vn 0.4814 0.6234 0.6162
vn 0.0110 0.4457 0.8951
vn -0.3370 0.1980 0.9205
vn -0.4221 0.1540 0.8934
vn -0.2858 0.1628 0.9444
vn -0.3597 0.1403 0.9225
vn -0.2202 0.1328 0.9664
vn -0.2677 0.0813 0.9601
vn -0.2671 0.0095 0.9636
vn -0.2954 0.0261 0.9550
vn -0.2824 0.0173 0.9592
vn -0.1496 -0.2038 0.9675
vn -0.4266 -0.0450 0.9033
vn -0.3866 -0.2419 0.8899
vn -0.6677 -0.2906 0.6854
vn -0.6736 -0.4280 0.6026
vn -0.9122 -0.3564 0.2022
vn -0.8217 -0.5458 0.1638
vn -0.8793 -0.4310 -0.2027
vn -0.7698 -0.5949 -0.2312
vn -0.5271 -0.6631 -0.5314
vn -0.2530 -0.5211 -0.8152
vn 0.1117 -0.4139 -0.9034
vn -0.7272 -0.3482 0.5915
vn -0.4098 -0.1175 0.9046
vn -0.4204 -0.2320 0.8772
vn -0.7955 -0.3643 0.4841
vn -0.4644 -0.2431 0.8516
vn -0.8900 -0.2783 0.3612
vn -0.9423 0.3107 -0.1250
vn -0.2384 0.0606 0.9693
vn -0.2288 0.1225 0.9657
vn -0.1848 0.1607 0.9695
vn -0.3495 0.5145 0.7830
vn -0.2160 0.2415 0.9461
vn -0.2724 0.6126 0.7420
vn -0.4424 0.7718 0.4567
vn -0.5219 0.7852 0.3333
vn -0.6406 0.7161 0.2772
vn -0.1105 0.6997 0.7059
vn -0.3258 0.7913 0.5174
vn 0.2973 0.7763 0.5558
vn 0.1925 0.8643 0.4647
vn 0.6308 0.7093 0.3147
vn 0.6308 0.7087 0.3160
vn 0.5421 0.8245 0.1625
vn 0.6365 0.7514 0.1738
vn 0.3271 0.9243 -0.1969
vn 0.1409 0.9629 -0.2302
vn -0.0193 0.8503 -0.5259
vn -0.1522 0.8584 -0.4899
vn -0.1001 0.8112 -0.5761
vn -0.2099 0.8244 -0.5256
vn -0.1237 0.8253 -0.5510
vn -0.2676 0.8201 -0.5059
vn 0.1699 0.7489 -0.6405
vn 0.2717 0.7036 -0.6567
vn 0.1701 0.7310 -0.6608
vn 0.4942 0.4485 -0.7447
vn 0.5024 0.3435 -0.7935
vn 0.3130 0.8033 -0.5066
vn 0.6597 0.6527 -0.3725
vn 0.7856 0.5623 -0.2581
vn 0.6374 0.2481 -0.7295
vn 0.5942 0.8021 -0.0603
vn 0.7102 0.6974 0.0961
vn 0.7159 0.6837 0.1414
vn 0.7968 0.5876 0.1409
vn 0.6779 0.7046 0.2098
vn 0.6796 0.7125 0.1748
vn 0.7585 0.6335 0.1529
vn 0.9416 0.2670 0.2053
vn 0.9510 0.2654 0.1584
vn 0.5662 0.7941 0.2209
vn 0.6679 0.7020 0.2471
vn 0.9009 0.2744 0.3362
vn 0.9273 -0.1784 0.3291
vn 0.9519 -0.1326 0.2761
vn 0.5985 0.6674 0.4432
vn 0.7925 0.3054 0.5279
vn 0.5558 0.7654 0.3243
vn 0.5954 0.6590 0.4595
vn 0.6041 0.6714 0.4293
vn 0.2039 0.5940 0.7782
vn -0.1990 0.3463 0.9168
vn 0.9695 -0.0933 0.2267
vn 0.9181 -0.2552 0.3033
vn 0.9325 -0.2173 0.2884
vn 0.9750 -0.2163 -0.0514
vn 0.9300 -0.2224 0.2925
vn 0.9151 -0.3074 0.2611
vn 0.7995 -0.1546 -0.5804
vn 0.6621 -0.0271 -0.7490
vn 0.7327 0.0646 -0.6775
vn 0.6771 0.0956 -0.7296
vn 0.5852 0.0730 -0.8076
vn 0.6009 0.3330 -0.7267
vn 0.5968 0.2002 -0.7770
vn 0.3206 0.5497 -0.7714
vn 0.5579 -0.0992 -0.8240
vn 0.2670 -0.1951 -0.9438
vn 0.6632 0.7017 0.2603
vn -0.5134 -0.0603 -0.8560
# 258 vertex normals

vt 0.0695 0.7381 0.0000
vt 0.0416 0.7436 0.1344
vt 0.0782 0.6967 0.0000
vt 0.0809 0.7129 0.0000
vt 0.1023 0.6995 0.0000
vt 0.0896 0.7342 0.0000
vt 0.0992 0.6830 0.0000
vt 0.5605 0.8114 0.0000
vt 0.5998 0.7884 0.0000
vt 0.6100 0.8259 0.0000
vt 0.5671 0.8340 0.0000
vt 0.5877 0.8687 0.0000
vt 0.5544 0.8530 0.0000
vt 0.4875 0.8407 0.0000
vt 0.4817 0.8384 0.0000
vt 0.4847 0.8326 0.0000
vt 0.4910 0.8369 0.0000
vt 0.4959 0.8436 0.0000
vt 0.4896 0.8466 0.0000
vt 0.4811 0.8469 0.0000
vt 0.3972 0.8602 0.0000
vt 0.4171 0.8702 0.0000
vt 0.4066 0.8797 0.0000
vt 0.3928 0.8702 0.0000
vt 0.3772 0.8689 0.0000
vt 0.3765 0.8592 0.0000
vt 0.3800 0.8867 0.0000
vt 0.3441 0.7399 0.0000
vt 0.3367 0.7554 0.0000
vt 0.3187 0.7458 0.0000
vt 0.3359 0.7240 0.0000
vt 0.3513 0.7095 0.0000
vt 0.3656 0.7352 0.0000
vt 0.3502 0.7592 0.0000
vt 0.2462 0.8240 0.0000
vt 0.2339 0.8319 0.0000
vt 0.2385 0.8024 0.0000
vt 0.2518 0.8047 0.0000
vt 0.2598 0.8336 0.0000
vt 0.2510 0.8435 0.0000
vt 0.3634 0.8493 0.0000
vt 0.3546 0.8412 0.0000
vt 0.3722 0.8403 0.0000
vt 0.3753 0.8511 0.0000
vt 0.3574 0.8571 0.0000
vt 0.3453 0.8468 0.0000
vt 0.2778 0.8890 0.0000
vt 0.2571 0.8765 0.0000
vt 0.2696 0.8645 0.0000
vt 0.2913 0.8833 0.0000
vt 0.3071 0.9083 0.0000
vt 0.2809 0.9106 0.0000
vt 0.2375 0.8994 0.0000
vt 0.4746 0.7338 0.0000
vt 0.4544 0.7634 0.0000
vt 0.4339 0.7284 0.0000
vt 0.4697 0.7091 0.0000
vt 0.5039 0.7445 0.0000
vt 0.4846 0.7819 0.0000
vt 0.5099 0.7057 0.0000
vt 0.6660 0.7778 -0.1344
vt 0.6633 0.8385 0.0000
vt 0.6469 0.8319 0.0000
vt 0.6472 0.7807 0.0000
vt 0.0646 0.7895 0.0000
vt 0.0410 0.7962 0.0000
vt 0.8842 0.4656 0.0000
vt 0.8634 0.4863 0.0000
vt 0.8448 0.4749 0.0000
vt 0.8637 0.4270 0.0851
vt 0.3075 0.8234 0.0000
vt 0.3324 0.8524 0.0000
vt 0.3101 0.8643 0.0000
vt 0.2886 0.8467 0.0000
vt 0.3184 0.7895 0.0000
vt 0.3351 0.7909 0.0000
vt 0.3341 0.8259 0.0000
vt 0.2745 0.8114 0.0000
vt 0.8182 0.6599 0.0000
vt 0.8430 0.6743 0.0000
vt 0.8334 0.6974 0.0000
vt 0.7994 0.6646 0.0000
vt 0.7879 0.6280 0.0000
vt 0.8152 0.6297 0.0000
vt 0.8561 0.6436 0.0000
vt 0.9099 0.6874 0.0000
vt 0.8782 0.6851 0.0000
vt 0.8945 0.6520 0.0000
vt 0.9257 0.6639 0.0000
vt 0.9132 0.7028 0.0000
vt 0.8769 0.7125 0.0000
vt 0.9458 0.6785 0.0000
vt 0.5364 0.9092 0.0000
vt 0.5566 0.9273 0.0000
vt 0.5135 0.9422 0.0000
vt 0.4969 0.9232 0.0000
vt 0.4624 0.9593 0.0000
vt 0.4560 0.9457 0.0000
vt 0.5013 0.8871 0.0000
vt 0.5155 0.8838 0.0000
vt 0.4717 0.9089 0.0000
vt 0.4840 0.8871 0.0000
vt 0.4464 0.9297 0.0000
vt 0.3011 0.8754 0.0000
vt 0.3441 0.8826 0.0000
vt 0.3348 0.9057 0.0000
vt 0.3478 0.9366 0.0000
vt 0.3104 0.9353 0.0000
vt 0.3877 0.9127 0.0000
vt 0.3988 0.9410 0.0000
vt 0.9463 0.5947 0.0000
vt 0.9625 0.5804 0.0000
vt 0.9691 0.6314 0.0000
vt 0.9442 0.6251 0.0000
vt 0.9177 0.5726 0.0000
vt 0.9350 0.5453 0.0000
vt 0.9105 0.6138 0.0000
vt 0.8666 0.6052 0.0000
vt 0.8729 0.5635 0.0000
vt 0.8183 0.5986 0.0000
vt 0.8288 0.5642 0.0000
vt 0.8410 0.5235 0.0000
vt 0.8835 0.5286 0.0000
vt 0.9022 0.5065 0.0000
vt 0.9496 0.5346 0.0000
vt 0.9205 0.4933 0.0000
vt 0.9626 0.5278 0.0000
vt 0.9924 0.5743 0.0000
vt 0.9796 0.5770 0.0000
vt 0.1575 0.9219 0.0000
vt 0.2148 0.9400 0.0000
vt 0.2102 0.9508 0.0000
vt 0.1539 0.9345 0.0000
vt 0.9828 0.6355 0.0000
vt 0.2670 0.9571 0.0000
vt 0.2631 0.9688 0.0000
vt 0.9572 0.6877 0.0000
vt 0.3099 0.9646 0.0000
vt 0.3092 0.9777 0.0000
vt 0.9218 0.7179 0.0000
vt 0.3523 0.9674 0.0000
vt 0.3546 0.9799 0.0000
vt 0.8788 0.7279 0.0000
vt 0.4051 0.9677 0.0000
vt 0.4080 0.9808 0.0000
vt 0.8280 0.7123 -0.0851
vt 0.4666 0.9726 0.0000
vt 0.7842 0.6747 0.0000
vt 0.5185 0.9589 0.0000
vt 0.7709 0.6274 0.0000
vt 0.5632 0.9450 0.0000
vt 0.7766 0.5875 0.0000
vt 0.7932 0.5926 0.0000
vt 0.7926 0.5537 0.0000
vt 0.8078 0.5568 0.0000
vt 0.6192 0.9340 0.0000
vt 0.6034 0.9244 0.0000
vt 0.6286 0.8848 0.0000
vt 0.6450 0.8901 0.0000
vt 0.8250 0.5173 0.0000
vt 0.5865 0.9100 0.0000
vt 0.6116 0.8781 0.0000
vt 0.6320 0.8289 0.0000
vt 0.6304 0.7825 0.0000
vt 0.5833 0.7733 0.0000
vt 0.6108 0.7527 0.0000
vt 0.6227 0.7395 0.0000
vt 0.5970 0.7373 0.0000
vt 0.6069 0.7238 0.0000
vt 0.6127 0.7143 0.0000
vt 0.6322 0.7300 0.0000
vt 0.5805 0.7247 0.0000
vt 0.5890 0.7114 0.0000
vt 0.5967 0.7002 0.0000
vt 0.5574 0.6973 0.0000
vt 0.5635 0.6806 0.0000
vt 0.1583 0.6754 0.0000
vt 0.1617 0.6946 0.0000
vt 0.1206 0.6979 0.0000
vt 0.1202 0.6806 0.0000
vt 0.1646 0.7203 0.0000
vt 0.1195 0.7292 0.0000
vt 0.1778 0.7627 0.0000
vt 0.1250 0.7748 0.0000
vt 0.0893 0.7835 0.0000
vt 0.1488 0.8174 0.0000
vt 0.1111 0.8329 0.0000
vt 0.0894 0.8388 0.0000
vt 0.0680 0.8431 0.0000
vt 0.1381 0.8698 0.0000
vt 0.1206 0.8830 0.0000
vt 0.1060 0.8920 0.0000
vt 0.1713 0.8968 0.0000
vt 0.1639 0.9105 0.0000
vt 0.2241 0.9198 0.0000
vt 0.2191 0.9304 0.0000
vt 0.2745 0.9333 0.0000
vt 0.2706 0.9460 0.0000
vt 0.3105 0.9523 0.0000
vt 0.3508 0.9556 0.0000
vt 0.4026 0.9557 0.0000
vt 0.1993 0.8791 0.0000
vt 0.1741 0.8517 0.0000
vt 0.2106 0.8400 0.0000
vt 0.2281 0.8587 0.0000
vt 0.2271 0.8346 0.0000
vt 0.2428 0.8507 0.0000
vt 0.2767 0.8580 0.0000
vt 0.1977 0.8053 0.0000
vt 0.2239 0.8019 0.0000
vt 0.2231 0.7597 0.0000
vt 0.2422 0.7612 0.0000
vt 0.2152 0.7187 0.0000
vt 0.2498 0.7219 0.0000
vt 0.2834 0.7309 0.0000
vt 0.2605 0.7646 0.0000
vt 0.2916 0.7787 0.0000
vt 0.2561 0.6955 0.0000
vt 0.3000 0.7071 0.0000
vt 0.2598 0.6787 0.0000
vt 0.3105 0.6886 0.0000
vt 0.4172 0.6814 0.0000
vt 0.4633 0.6588 0.0000
vt 0.4662 0.6784 0.0000
vt 0.4248 0.7009 0.0000
vt 0.3981 0.7265 0.0000
vt 0.3827 0.7118 0.0000
vt 0.4131 0.7506 0.0000
vt 0.3998 0.7642 0.0000
vt 0.3778 0.7454 0.0000
vt 0.3888 0.7766 0.0000
vt 0.3638 0.7651 0.0000
vt 0.3769 0.7946 0.0000
vt 0.3519 0.7920 0.0000
vt 0.3699 0.8203 0.0000
vt 0.3465 0.8225 0.0000
vt 0.4019 0.8222 0.0000
vt 0.3991 0.8388 0.0000
vt 0.4117 0.8065 0.0000
vt 0.4446 0.8239 0.0000
vt 0.4392 0.8336 0.0000
vt 0.4196 0.7971 0.0000
vt 0.4492 0.8169 0.0000
vt 0.4737 0.8275 0.0000
vt 0.4703 0.8344 0.0000
vt 0.4271 0.7895 0.0000
vt 0.4548 0.8098 0.0000
vt 0.4778 0.8203 0.0000
vt 0.4886 0.8268 0.0000
vt 0.4632 0.8001 0.0000
vt 0.4858 0.8096 0.0000
vt 0.4972 0.8163 0.0000
vt 0.5060 0.8225 0.0000
vt 0.4957 0.8325 0.0000
vt 0.5083 0.7874 0.0000
vt 0.5202 0.7921 0.0000
vt 0.5314 0.7968 0.0000
vt 0.5434 0.8024 0.0000
vt 0.5153 0.8287 0.0000
vt 0.5561 0.7545 0.0000
vt 0.5701 0.7627 0.0000
vt 0.5376 0.7474 0.0000
vt 0.5508 0.7149 0.0000
vt 0.5128 0.6831 0.0000
vt 0.5146 0.6639 0.0000
vt 0.2112 0.6902 0.0000
vt 0.2094 0.6702 0.0000
vt 0.5025 0.8392 0.0000
vt 0.5275 0.8371 0.0000
vt 0.5124 0.8499 0.0000
vt 0.5032 0.8552 0.0000
vt 0.5290 0.8741 0.0000
vt 0.5595 0.8934 0.0000
vt 0.4941 0.8589 0.0000
vt 0.4827 0.8607 0.0000
vt 0.4542 0.8793 0.0000
vt 0.4634 0.8596 0.0000
vt 0.4674 0.8435 0.0000
vt 0.4309 0.8494 0.0000
vt 0.4230 0.8626 0.0000
vt 0.3982 0.8518 0.0000
vt 0.4437 0.8917 0.0000
vt 0.4275 0.9031 0.0000
vt 0.4363 0.7800 0.0000
vt 0.3527 0.8671 0.0000
# 285 texture coords

o LargeRock_Low
g LargeRock_Low
usemtl default
s 1
f 1/1/1 2/2/2 3/3/3 4/4/4 
f 4/4/4 5/5/5 6/6/6 1/1/1 
f 3/3/3 7/7/7 5/5/5 4/4/4 
f 8/8/8 9/9/9 10/10/10 11/11/11 
f 11/11/11 10/10/10 12/12/12 13/13/13 
f 14/14/14 15/15/15 16/16/16 17/17/17 
f 14/14/14 17/17/17 18/18/18 19/19/19 
f 14/14/14 19/19/19 20/20/20 15/15/15 
f 21/21/21 22/22/22 23/23/23 24/24/24 
f 24/24/24 25/25/25 26/26/26 21/21/21 
f 24/24/24 23/23/23 27/27/27 25/25/25 
f 28/28/28 29/29/29 30/30/30 31/31/31 
f 31/31/31 32/32/32 33/33/33 28/28/28 
f 28/28/28 33/33/33 34/34/34 29/29/29 
f 35/35/35 36/36/36 37/37/37 38/38/38 
f 35/35/35 39/39/39 40/40/40 36/36/36 
f 41/41/41 42/42/42 43/43/43 44/44/44 
f 41/41/41 44/44/44 26/26/26 45/45/45 
f 45/45/45 46/46/46 42/42/42 41/41/41 
f 47/47/47 48/48/48 49/49/49 50/50/50 
f 50/50/50 51/51/51 52/52/52 47/47/47 
f 47/47/47 52/52/52 53/53/53 48/48/48 
f 54/54/54 55/55/55 56/56/56 57/57/57 
f 54/54/54 58/58/58 59/59/59 55/55/55 
f 54/54/54 57/57/57 60/60/60 58/58/58 
f 2/61/2 61/62/61 62/63/62 63/64/63 
f 2/2/2 1/1/1 64/65/64 65/66/65 
f 65/67/65 66/68/66 61/69/61 2/70/2 
f 67/71/67 68/72/68 69/73/69 70/74/70 
f 71/75/71 72/76/72 73/77/73 67/71/67 
f 70/74/70 39/39/39 74/78/74 67/71/67 
f 73/77/73 46/46/46 68/72/68 67/71/67 
f 75/79/75 76/80/76 77/81/77 78/82/78 
f 78/82/78 79/83/79 80/84/80 75/79/75 
f 75/79/75 80/84/80 81/85/81 76/80/76 
f 82/86/82 83/87/83 84/88/84 85/89/85 
f 86/90/86 87/91/87 83/87/83 82/86/82 
f 82/86/82 85/89/85 88/92/88 86/90/86 
f 89/93/89 90/94/90 91/95/91 92/96/92 
f 92/96/92 91/95/91 93/97/93 94/98/94 
f 95/99/95 96/100/96 89/93/89 92/96/92 
f 97/101/97 98/102/98 95/99/95 92/96/92 
f 94/98/94 99/103/99 97/101/97 92/96/92 
f 100/104/100 69/73/69 101/105/101 102/106/102 
f 51/51/51 50/50/50 100/104/100 102/106/102 
f 102/106/102 103/107/103 104/108/104 51/51/51 
f 105/109/105 106/110/106 103/107/103 102/106/102 
f 102/106/102 101/105/101 27/27/27 105/109/105 
f 107/111/107 108/112/108 109/113/109 110/114/110 
f 111/115/111 112/116/112 108/112/108 107/111/107 
f 107/111/107 110/114/110 113/117/113 111/115/111 
f 84/88/84 81/85/81 114/118/114 113/117/113 
f 114/118/114 115/119/115 111/115/111 113/117/113 
f 113/117/113 110/114/110 85/89/85 84/88/84 
f 114/118/114 116/120/116 117/121/117 115/119/115 
f 115/119/115 117/121/117 118/122/118 119/123/119 
f 119/123/119 112/116/112 111/115/111 115/119/115 
f 119/123/119 118/122/118 66/68/66 120/124/120 
f 120/124/120 121/125/121 112/116/112 119/123/119 
f 121/125/121 120/124/120 122/126/122 123/127/123 
f 123/127/123 124/128/124 125/129/125 121/125/121 
f 121/125/121 125/129/125 108/112/108 112/116/112 
f 124/130/124 126/131/126 127/132/127 125/133/125 
f 125/129/125 127/134/127 109/113/109 108/112/108 
f 126/131/126 128/135/128 129/136/129 127/132/127 
f 127/134/127 129/137/129 88/92/88 109/113/109 
f 128/135/128 130/138/130 131/139/131 129/136/129 
f 131/140/131 86/90/86 88/92/88 129/137/129 
f 131/139/131 130/138/130 132/141/132 133/142/133 
f 133/143/133 87/91/87 86/90/86 131/140/131 
f 133/142/133 132/141/132 134/144/134 135/145/135 
f 135/146/135 77/81/77 87/91/87 133/143/133 
f 135/145/135 134/144/134 93/97/93 136/147/136 
f 136/148/136 78/82/78 77/81/77 135/146/135 
f 136/147/136 93/97/93 91/95/91 137/149/137 
f 137/150/137 79/83/79 78/82/78 136/148/136 
f 137/149/137 91/95/91 90/94/90 138/151/138 
f 137/150/137 138/152/138 139/153/139 79/83/79 
f 139/153/139 138/152/138 140/154/140 141/155/141 
f 141/155/141 117/121/117 116/120/116 139/153/139 
f 116/120/116 80/84/80 79/83/79 139/153/139 
f 141/156/141 140/157/140 142/158/142 143/159/143 
f 141/155/141 143/160/143 118/122/118 117/121/117 
f 142/158/142 62/63/62 61/62/61 143/159/143 
f 61/69/61 66/68/66 118/122/118 143/160/143 
f 140/157/140 144/161/144 145/162/145 142/158/142 
f 142/158/142 145/162/145 146/163/146 62/63/62 
f 145/162/145 12/12/12 10/10/10 146/163/146 
f 10/10/10 9/9/9 147/164/147 146/163/146 
f 146/163/146 147/164/147 63/64/63 62/63/62 
f 9/9/9 148/165/148 149/166/149 147/164/147 
f 147/164/147 149/166/149 150/167/150 63/64/63 
f 150/167/150 149/166/149 151/168/151 152/169/152 
f 152/169/152 7/170/7 3/171/3 150/167/150 
f 3/171/3 2/61/2 63/64/63 150/167/150 
f 152/169/152 151/168/151 153/172/153 154/173/154 
f 154/173/154 155/174/155 7/170/7 152/169/152 
f 154/173/154 156/175/156 157/176/157 155/174/155 
f 157/177/157 158/178/158 159/179/159 155/180/155 
f 155/180/155 159/179/159 5/5/5 7/7/7 
f 159/179/159 158/178/158 160/181/160 161/182/161 
f 161/182/161 6/6/6 5/5/5 159/179/159 
f 160/181/160 162/183/162 163/184/163 161/182/161 
f 163/184/163 164/185/164 6/6/6 161/182/161 
f 164/185/164 64/65/64 1/1/1 6/6/6 
f 163/184/163 165/186/165 166/187/166 164/185/164 
f 164/185/164 166/187/166 167/188/167 64/65/64 
f 122/189/122 65/66/65 64/65/64 167/188/167 
f 166/187/166 168/190/168 169/191/169 167/188/167 
f 167/188/167 169/191/169 123/192/123 122/189/122 
f 168/190/168 170/193/170 171/194/171 169/191/169 
f 169/191/169 171/194/171 124/130/124 123/192/123 
f 170/193/170 172/195/172 173/196/173 171/194/171 
f 171/194/171 173/196/173 126/131/126 124/130/124 
f 172/195/172 174/197/174 175/198/175 173/196/173 
f 173/196/173 175/198/175 128/135/128 126/131/126 
f 174/197/174 104/108/104 176/199/176 175/198/175 
f 175/198/175 176/199/176 130/138/130 128/135/128 
f 176/199/176 104/108/104 103/107/103 177/200/177 
f 177/200/177 132/141/132 130/138/130 176/199/176 
f 177/200/177 103/107/103 106/110/106 178/201/178 
f 178/201/178 134/144/134 132/141/132 177/200/177 
f 178/201/178 106/110/106 99/103/99 94/98/94 
f 94/98/94 93/97/93 134/144/134 178/201/178 
f 174/197/174 172/195/172 53/53/53 52/52/52 
f 52/52/52 51/51/51 104/108/104 174/197/174 
f 172/195/172 170/193/170 179/202/179 53/53/53 
f 170/193/170 168/190/168 180/203/180 179/202/179 
f 179/202/179 180/203/180 181/204/181 182/205/182 
f 182/205/182 48/48/48 53/53/53 179/202/179 
f 182/205/182 181/204/181 183/206/183 184/207/184 
f 184/207/184 49/49/49 48/48/48 182/205/182 
f 184/207/184 183/206/183 36/36/36 40/40/40 
f 40/40/40 185/208/185 49/49/49 184/207/184 
f 185/208/185 40/40/40 39/39/39 70/74/70 
f 70/74/70 69/73/69 100/104/100 185/208/185 
f 185/208/185 100/104/100 50/50/50 49/49/49 
f 181/204/181 186/209/186 187/210/187 183/206/183 
f 187/210/187 37/37/37 36/36/36 183/206/183 
f 186/209/186 162/183/162 188/211/188 187/210/187 
f 187/210/187 188/211/188 189/212/189 37/37/37 
f 188/211/188 190/213/190 191/214/191 189/212/189 
f 191/214/191 192/215/192 193/216/193 189/212/189 
f 193/216/193 38/38/38 37/37/37 189/212/189 
f 192/215/192 30/30/30 194/217/194 193/216/193 
f 194/217/194 74/78/74 38/38/38 193/216/193 
f 30/30/30 29/29/29 71/75/71 194/217/194 
f 194/217/194 71/75/71 67/71/67 74/78/74 
f 192/215/192 191/214/191 195/218/195 196/219/196 
f 196/219/196 31/31/31 30/30/30 192/215/192 
f 196/219/196 195/218/195 197/220/197 198/221/198 
f 198/221/198 32/32/32 31/31/31 196/219/196 
f 198/222/198 197/223/197 199/224/199 200/225/200 
f 200/225/200 201/226/201 32/227/32 198/222/198 
f 201/226/201 200/225/200 56/56/56 202/228/202 
f 202/228/202 203/229/203 204/230/204 201/226/201 
f 204/230/204 33/33/33 32/227/32 201/226/201 
f 204/230/204 203/229/203 205/231/205 206/232/206 
f 206/232/206 34/34/34 33/33/33 204/230/204 
f 206/232/206 205/231/205 207/233/207 208/234/208 
f 208/234/208 72/76/72 34/34/34 206/232/206 
f 208/234/208 207/233/207 209/235/209 210/236/210 
f 210/236/210 73/77/73 72/76/72 208/234/208 
f 209/235/209 43/43/43 42/42/42 210/236/210 
f 210/236/210 42/42/42 46/46/46 73/77/73 
f 209/235/209 211/237/211 212/238/212 43/43/43 
f 207/233/207 213/239/213 211/237/211 209/235/209 
f 213/239/213 214/240/214 215/241/215 211/237/211 
f 213/239/213 207/233/207 205/231/205 216/242/216 
f 216/242/216 217/243/217 214/240/214 213/239/213 
f 217/243/217 218/244/218 219/245/219 214/240/214 
f 217/243/217 216/242/216 220/246/220 221/247/221 
f 221/247/221 222/248/222 218/244/218 217/243/217 
f 222/248/222 223/249/223 16/16/16 218/244/218 
f 222/248/222 221/247/221 224/250/224 225/251/225 
f 225/251/225 226/252/226 223/249/223 222/248/222 
f 226/252/226 227/253/227 228/254/228 223/249/223 
f 226/252/226 225/251/225 229/255/229 230/256/230 
f 230/256/230 231/257/231 227/253/227 226/252/226 
f 231/257/231 232/258/232 233/259/233 227/253/227 
f 231/257/231 230/256/230 234/260/234 235/261/235 
f 235/261/235 148/165/148 232/258/232 231/257/231 
f 235/261/235 234/260/234 153/172/153 151/168/151 
f 151/168/151 149/166/149 148/165/148 235/261/235 
f 230/256/230 229/255/229 236/262/236 234/260/234 
f 234/260/234 236/262/236 237/263/237 153/172/153 
f 236/262/236 58/58/58 60/60/60 237/263/237 
f 60/60/60 238/264/238 156/175/156 237/263/237 
f 156/175/156 154/173/154 153/172/153 237/263/237 
f 60/60/60 57/57/57 199/224/199 238/264/238 
f 199/224/199 197/223/197 239/265/239 238/264/238 
f 238/264/238 239/265/239 157/176/157 156/175/156 
f 197/220/197 195/218/195 240/266/240 239/267/239 
f 239/267/239 240/266/240 158/178/158 157/177/157 
f 195/218/195 191/214/191 190/213/190 240/266/240 
f 240/266/240 190/213/190 160/181/160 158/178/158 
f 229/255/229 59/59/59 58/58/58 236/262/236 
f 241/268/241 228/254/228 227/253/227 233/259/233 
f 232/258/232 8/8/8 242/269/242 233/259/233 
f 233/259/233 242/269/242 243/270/243 241/268/241 
f 244/271/244 18/18/18 241/268/241 243/270/243 
f 242/269/242 13/13/13 245/272/245 243/270/243 
f 245/272/245 96/100/96 244/271/244 243/270/243 
f 13/13/13 12/12/12 246/273/246 245/272/245 
f 245/272/245 246/273/246 89/93/89 96/100/96 
f 12/12/12 145/162/145 144/161/144 246/273/246 
f 246/273/246 144/161/144 90/94/90 89/93/89 
f 247/274/247 19/19/19 18/18/18 244/271/244 
f 244/271/244 96/100/96 95/99/95 247/274/247 
f 248/275/248 20/20/20 19/19/19 247/274/247 
f 247/274/247 95/99/95 98/102/98 248/275/248 
f 98/102/98 249/276/249 250/277/250 248/275/248 
f 250/277/250 251/278/251 20/20/20 248/275/248 
f 250/277/250 252/279/252 215/241/215 251/278/251 
f 251/278/251 215/241/215 214/240/214 219/245/219 
f 251/278/251 219/245/219 15/15/15 20/20/20 
f 252/279/252 250/277/250 249/276/249 253/280/253 
f 252/279/252 253/280/253 254/281/254 212/238/212 
f 252/279/252 212/238/212 211/237/211 215/241/215 
f 253/280/253 22/22/22 21/21/21 254/281/254 
f 254/281/254 21/21/21 26/26/26 44/44/44 
f 44/44/44 43/43/43 212/238/212 254/281/254 
f 253/280/253 249/276/249 255/282/255 22/22/22 
f 255/282/255 97/101/97 99/103/99 256/283/256 
f 256/283/256 23/23/23 22/22/22 255/282/255 
f 249/276/249 98/102/98 97/101/97 255/282/255 
f 256/283/256 99/103/99 106/110/106 105/109/105 
f 105/109/105 27/27/27 23/23/23 256/283/256 
f 8/8/8 11/11/11 13/13/13 242/269/242 
f 18/18/18 17/17/17 228/254/228 241/268/241 
f 148/165/148 9/9/9 8/8/8 232/258/232 
f 225/251/225 224/250/224 59/59/59 229/255/229 
f 17/17/17 16/16/16 223/249/223 228/254/228 
f 221/247/221 220/246/220 257/284/257 224/250/224 
f 224/250/224 257/284/257 55/55/55 59/59/59 
f 257/284/257 220/246/220 203/229/203 202/228/202 
f 202/228/202 56/56/56 55/55/55 257/284/257 
f 216/242/216 205/231/205 203/229/203 220/246/220 
f 218/244/218 16/16/16 15/15/15 219/245/219 
f 200/225/200 199/224/199 57/57/57 56/56/56 
f 190/213/190 188/211/188 162/183/162 160/181/160 
f 165/186/165 163/184/163 162/183/162 186/209/186 
f 186/209/186 181/204/181 180/203/180 165/186/165 
f 168/190/168 166/187/166 165/186/165 180/203/180 
f 144/161/144 140/157/140 138/151/138 90/94/90 
f 120/124/120 66/68/66 65/67/65 122/126/122 
f 114/118/114 81/85/81 80/84/80 116/120/116 
f 110/114/110 109/113/109 88/92/88 85/89/85 
f 101/105/101 69/73/69 68/72/68 258/285/258 
f 258/285/258 25/25/25 27/27/27 101/105/101 
f 258/285/258 68/72/68 46/46/46 45/45/45 
f 45/45/45 26/26/26 25/25/25 258/285/258 
f 77/81/77 76/80/76 83/87/83 87/91/87 
f 83/87/83 76/80/76 81/85/81 84/88/84 
f 39/39/39 35/35/35 38/38/38 74/78/74 
f 72/76/72 71/75/71 29/29/29 34/34/34 
# 256 polygons

