%YAML 1.1
%TAG !u! tag:unity3d.com,2011:
--- !u!21 &2100000
Material:
  serializedVersion: 6
  m_ObjectHideFlags: 0
  m_CorrespondingSourceObject: {fileID: 0}
  m_PrefabInstance: {fileID: 0}
  m_PrefabAsset: {fileID: 0}
  m_Name: BackgroundToonMat
  m_Shader: {fileID: 4800000, guid: f73ccecafa2df5c4281da8cbc1006065, type: 3}
  m_ShaderKeywords: 
  m_LightmapFlags: 4
  m_EnableInstancingVariants: 0
  m_DoubleSidedGI: 0
  m_CustomRenderQueue: -1
  stringTagMap: {}
  disabledShaderPasses: []
  m_SavedProperties:
    serializedVersion: 3
    m_TexEnvs:
    - Texture2D_44758B8B:
        m_Texture: {fileID: 0}
        m_Scale: {x: 1, y: 1}
        m_Offset: {x: 0, y: 0}
    m_Floats:
    - Boolean_5F3F3066: 1
    - Boolean_7D16A5C7: 0
    - Vector1_30136C17: 0.1
    - Vector1_3A15C4B4: 1
    - Vector1_462FB5AE: 5.28
    - Vector1_6C2FFD40: 0.15
    - Vector1_B3B28F64: 2.5
    - Vector1_C91F4DC7: 0.54
    - Vector1_D0D0CB2A: 0.5
    m_Colors:
    - Color_11680D00: {r: 0.3962264, g: 0.3013948, b: 0.21119614, a: 0}
    - Color_8BC11E58: {r: 0.5226504, g: 0.7625192, b: 0.764151, a: 0}
