%YAML 1.1
%TAG !u! tag:unity3d.com,2011:
--- !u!74 &7400000
AnimationClip:
  m_ObjectHideFlags: 0
  m_CorrespondingSourceObject: {fileID: 0}
  m_PrefabInstance: {fileID: 0}
  m_PrefabAsset: {fileID: 0}
  m_Name: LeverTutorial
  serializedVersion: 6
  m_Legacy: 0
  m_Compressed: 0
  m_UseHighQualityCurve: 1
  m_RotationCurves: []
  m_CompressedRotationCurves: []
  m_EulerCurves: []
  m_PositionCurves: []
  m_ScaleCurves: []
  m_FloatCurves: []
  m_PPtrCurves:
  - curve:
    - time: 0
      value: {fileID: 2487754148215868686, guid: 64798cdedba0b8d4882c9a53162f51ac,
        type: 3}
    - time: 0.016666668
      value: {fileID: -1752236385213890867, guid: 64798cdedba0b8d4882c9a53162f51ac,
        type: 3}
    - time: 0.06666667
      value: {fileID: -5983343684865056191, guid: 64798cdedba0b8d4882c9a53162f51ac,
        type: 3}
    - time: 0.083333336
      value: {fileID: 4333820570023986285, guid: 64798cdedba0b8d4882c9a53162f51ac,
        type: 3}
    - time: 0.11666667
      value: {fileID: -9180715887612828272, guid: 64798cdedba0b8d4882c9a53162f51ac,
        type: 3}
    - time: 0.13333334
      value: {fileID: 7794378684071744247, guid: 64798cdedba0b8d4882c9a53162f51ac,
        type: 3}
    - time: 0.16666667
      value: {fileID: 6659424755888864963, guid: 64798cdedba0b8d4882c9a53162f51ac,
        type: 3}
    - time: 0.2
      value: {fileID: 2156978864914415392, guid: 64798cdedba0b8d4882c9a53162f51ac,
        type: 3}
    - time: 0.23333333
      value: {fileID: 6402044681676970206, guid: 64798cdedba0b8d4882c9a53162f51ac,
        type: 3}
    - time: 0.26666668
      value: {fileID: -6416724763220514224, guid: 64798cdedba0b8d4882c9a53162f51ac,
        type: 3}
    - time: 0.28333333
      value: {fileID: -5282579588933014255, guid: 64798cdedba0b8d4882c9a53162f51ac,
        type: 3}
    - time: 0.31666666
      value: {fileID: 6896402009188612556, guid: 64798cdedba0b8d4882c9a53162f51ac,
        type: 3}
    - time: 0.33333334
      value: {fileID: -6870184867666666381, guid: 64798cdedba0b8d4882c9a53162f51ac,
        type: 3}
    - time: 0.36666667
      value: {fileID: -4988838778518843927, guid: 64798cdedba0b8d4882c9a53162f51ac,
        type: 3}
    - time: 0.4
      value: {fileID: 7546528345229226760, guid: 64798cdedba0b8d4882c9a53162f51ac,
        type: 3}
    - time: 0.41666666
      value: {fileID: 5691257523857411396, guid: 64798cdedba0b8d4882c9a53162f51ac,
        type: 3}
    - time: 0.45
      value: {fileID: -120243322903028192, guid: 64798cdedba0b8d4882c9a53162f51ac,
        type: 3}
    - time: 0.46666667
      value: {fileID: -8495512566589673660, guid: 64798cdedba0b8d4882c9a53162f51ac,
        type: 3}
    - time: 0.5
      value: {fileID: -2311157192133985740, guid: 64798cdedba0b8d4882c9a53162f51ac,
        type: 3}
    - time: 0.53333336
      value: {fileID: -7292720808205259839, guid: 64798cdedba0b8d4882c9a53162f51ac,
        type: 3}
    - time: 0.56666666
      value: {fileID: -2725349244025016847, guid: 64798cdedba0b8d4882c9a53162f51ac,
        type: 3}
    - time: 0.5833333
      value: {fileID: 3995766214276383735, guid: 64798cdedba0b8d4882c9a53162f51ac,
        type: 3}
    - time: 0.6166667
      value: {fileID: -3372447098377642143, guid: 64798cdedba0b8d4882c9a53162f51ac,
        type: 3}
    - time: 0.65
      value: {fileID: 1740735455920979072, guid: 64798cdedba0b8d4882c9a53162f51ac,
        type: 3}
    - time: 0.6666667
      value: {fileID: 6082213046329472804, guid: 64798cdedba0b8d4882c9a53162f51ac,
        type: 3}
    - time: 0.7
      value: {fileID: 4594983669072474074, guid: 64798cdedba0b8d4882c9a53162f51ac,
        type: 3}
    - time: 0.73333335
      value: {fileID: -146625182948534648, guid: 64798cdedba0b8d4882c9a53162f51ac,
        type: 3}
    - time: 0.76666665
      value: {fileID: -2478632237269077653, guid: 64798cdedba0b8d4882c9a53162f51ac,
        type: 3}
    - time: 0.78333336
      value: {fileID: -2338406735251587364, guid: 64798cdedba0b8d4882c9a53162f51ac,
        type: 3}
    - time: 0.81666666
      value: {fileID: 1971409929925156218, guid: 64798cdedba0b8d4882c9a53162f51ac,
        type: 3}
    - time: 0.85
      value: {fileID: 4879056601086241424, guid: 64798cdedba0b8d4882c9a53162f51ac,
        type: 3}
    - time: 0.8666667
      value: {fileID: 6128781798245164473, guid: 64798cdedba0b8d4882c9a53162f51ac,
        type: 3}
    - time: 0.9
      value: {fileID: 5169992912475240710, guid: 64798cdedba0b8d4882c9a53162f51ac,
        type: 3}
    - time: 0.9166667
      value: {fileID: 5850737461128647746, guid: 64798cdedba0b8d4882c9a53162f51ac,
        type: 3}
    - time: 0.95
      value: {fileID: 3001346115027714168, guid: 64798cdedba0b8d4882c9a53162f51ac,
        type: 3}
    - time: 0.96666664
      value: {fileID: -2013719390236732632, guid: 64798cdedba0b8d4882c9a53162f51ac,
        type: 3}
    - time: 1.0166667
      value: {fileID: 1799542987187855350, guid: 64798cdedba0b8d4882c9a53162f51ac,
        type: 3}
    - time: 1.0333333
      value: {fileID: 77093654333540177, guid: 64798cdedba0b8d4882c9a53162f51ac, type: 3}
    - time: 1.0666667
      value: {fileID: 9026812090178379079, guid: 64798cdedba0b8d4882c9a53162f51ac,
        type: 3}
    - time: 1.1
      value: {fileID: 9057626718661740367, guid: 64798cdedba0b8d4882c9a53162f51ac,
        type: 3}
    - time: 1.1166667
      value: {fileID: -1093648974269620231, guid: 64798cdedba0b8d4882c9a53162f51ac,
        type: 3}
    - time: 1.15
      value: {fileID: 7861861786514179052, guid: 64798cdedba0b8d4882c9a53162f51ac,
        type: 3}
    - time: 1.1666666
      value: {fileID: -6040397083618575882, guid: 64798cdedba0b8d4882c9a53162f51ac,
        type: 3}
    - time: 1.2166667
      value: {fileID: -7485075324523081564, guid: 64798cdedba0b8d4882c9a53162f51ac,
        type: 3}
    - time: 1.2333333
      value: {fileID: 2611809155775594448, guid: 64798cdedba0b8d4882c9a53162f51ac,
        type: 3}
    - time: 1.2666667
      value: {fileID: 1524076369786275206, guid: 64798cdedba0b8d4882c9a53162f51ac,
        type: 3}
    - time: 1.2833333
      value: {fileID: 7989725432498370554, guid: 64798cdedba0b8d4882c9a53162f51ac,
        type: 3}
    - time: 1.3166667
      value: {fileID: -4316586082909260722, guid: 64798cdedba0b8d4882c9a53162f51ac,
        type: 3}
    - time: 1.35
      value: {fileID: -1852771458194171951, guid: 64798cdedba0b8d4882c9a53162f51ac,
        type: 3}
    - time: 1.3666667
      value: {fileID: -8495496166773922705, guid: 64798cdedba0b8d4882c9a53162f51ac,
        type: 3}
    - time: 1.4
      value: {fileID: -2617612926524040442, guid: 64798cdedba0b8d4882c9a53162f51ac,
        type: 3}
    - time: 1.4166666
      value: {fileID: 4216634258757330251, guid: 64798cdedba0b8d4882c9a53162f51ac,
        type: 3}
    - time: 1.4666667
      value: {fileID: 6029429490672257313, guid: 64798cdedba0b8d4882c9a53162f51ac,
        type: 3}
    - time: 1.4833333
      value: {fileID: 5669310679631262547, guid: 64798cdedba0b8d4882c9a53162f51ac,
        type: 3}
    - time: 1.5166667
      value: {fileID: -2878099199796682977, guid: 64798cdedba0b8d4882c9a53162f51ac,
        type: 3}
    - time: 1.5333333
      value: {fileID: -8422655839970398481, guid: 64798cdedba0b8d4882c9a53162f51ac,
        type: 3}
    - time: 1.5666667
      value: {fileID: 2436626491380409800, guid: 64798cdedba0b8d4882c9a53162f51ac,
        type: 3}
    - time: 1.6
      value: {fileID: -5730463343630728673, guid: 64798cdedba0b8d4882c9a53162f51ac,
        type: 3}
    - time: 1.6166667
      value: {fileID: -225672888539882083, guid: 64798cdedba0b8d4882c9a53162f51ac,
        type: 3}
    - time: 1.65
      value: {fileID: -2506006525412237931, guid: 64798cdedba0b8d4882c9a53162f51ac,
        type: 3}
    - time: 1.6666666
      value: {fileID: 8277163569074396914, guid: 64798cdedba0b8d4882c9a53162f51ac,
        type: 3}
    - time: 1.7166667
      value: {fileID: -8132208277712497676, guid: 64798cdedba0b8d4882c9a53162f51ac,
        type: 3}
    - time: 1.7333333
      value: {fileID: 202106001429470132, guid: 64798cdedba0b8d4882c9a53162f51ac,
        type: 3}
    - time: 1.7666667
      value: {fileID: -2957837931681659194, guid: 64798cdedba0b8d4882c9a53162f51ac,
        type: 3}
    - time: 1.7833333
      value: {fileID: -2214537748463867011, guid: 64798cdedba0b8d4882c9a53162f51ac,
        type: 3}
    - time: 1.8166667
      value: {fileID: -6319622435941143836, guid: 64798cdedba0b8d4882c9a53162f51ac,
        type: 3}
    - time: 1.85
      value: {fileID: 3563245788767696609, guid: 64798cdedba0b8d4882c9a53162f51ac,
        type: 3}
    - time: 1.8666667
      value: {fileID: 6533276907531023680, guid: 64798cdedba0b8d4882c9a53162f51ac,
        type: 3}
    - time: 1.9
      value: {fileID: -8223481185342321410, guid: 64798cdedba0b8d4882c9a53162f51ac,
        type: 3}
    - time: 1.9333333
      value: {fileID: -194030899506134881, guid: 64798cdedba0b8d4882c9a53162f51ac,
        type: 3}
    - time: 1.9666667
      value: {fileID: -6054439625797550129, guid: 64798cdedba0b8d4882c9a53162f51ac,
        type: 3}
    - time: 1.9833333
      value: {fileID: 3833189195797723396, guid: 64798cdedba0b8d4882c9a53162f51ac,
        type: 3}
    - time: 2.0166667
      value: {fileID: -3392390315800480185, guid: 64798cdedba0b8d4882c9a53162f51ac,
        type: 3}
    - time: 2.05
      value: {fileID: 7410669145442001636, guid: 64798cdedba0b8d4882c9a53162f51ac,
        type: 3}
    - time: 2.0666666
      value: {fileID: 3786885550895827560, guid: 64798cdedba0b8d4882c9a53162f51ac,
        type: 3}
    - time: 2.1
      value: {fileID: -4049500278435047656, guid: 64798cdedba0b8d4882c9a53162f51ac,
        type: 3}
    - time: 2.1166666
      value: {fileID: -8899542387541288462, guid: 64798cdedba0b8d4882c9a53162f51ac,
        type: 3}
    - time: 2.15
      value: {fileID: 3229477858549641194, guid: 64798cdedba0b8d4882c9a53162f51ac,
        type: 3}
    - time: 2.1666667
      value: {fileID: 3682505858544128241, guid: 64798cdedba0b8d4882c9a53162f51ac,
        type: 3}
    - time: 2.2166667
      value: {fileID: 3302371410307499352, guid: 64798cdedba0b8d4882c9a53162f51ac,
        type: 3}
    - time: 2.2333333
      value: {fileID: 6839319688245379189, guid: 64798cdedba0b8d4882c9a53162f51ac,
        type: 3}
    - time: 2.2666667
      value: {fileID: 4685629469326375359, guid: 64798cdedba0b8d4882c9a53162f51ac,
        type: 3}
    - time: 2.3
      value: {fileID: 2066263250108000990, guid: 64798cdedba0b8d4882c9a53162f51ac,
        type: 3}
    - time: 2.3166666
      value: {fileID: -5379690161182558549, guid: 64798cdedba0b8d4882c9a53162f51ac,
        type: 3}
    - time: 2.35
      value: {fileID: 8526294246602477441, guid: 64798cdedba0b8d4882c9a53162f51ac,
        type: 3}
    - time: 2.3833334
      value: {fileID: -7847992883779021307, guid: 64798cdedba0b8d4882c9a53162f51ac,
        type: 3}
    - time: 2.4166667
      value: {fileID: -8250577162285286293, guid: 64798cdedba0b8d4882c9a53162f51ac,
        type: 3}
    - time: 2.4333334
      value: {fileID: -8130175090938430335, guid: 64798cdedba0b8d4882c9a53162f51ac,
        type: 3}
    - time: 2.4666667
      value: {fileID: 2469999988579274479, guid: 64798cdedba0b8d4882c9a53162f51ac,
        type: 3}
    - time: 2.5
      value: {fileID: 7323390959281168572, guid: 64798cdedba0b8d4882c9a53162f51ac,
        type: 3}
    - time: 2.5166667
      value: {fileID: -4815484492146516176, guid: 64798cdedba0b8d4882c9a53162f51ac,
        type: 3}
    - time: 2.55
      value: {fileID: 6856704254578465762, guid: 64798cdedba0b8d4882c9a53162f51ac,
        type: 3}
    - time: 2.5833333
      value: {fileID: 365334822349498567, guid: 64798cdedba0b8d4882c9a53162f51ac,
        type: 3}
    - time: 2.6
      value: {fileID: -3330877284115568952, guid: 64798cdedba0b8d4882c9a53162f51ac,
        type: 3}
    - time: 2.6166666
      value: {fileID: 5603607580078803999, guid: 64798cdedba0b8d4882c9a53162f51ac,
        type: 3}
    - time: 2.6666667
      value: {fileID: 8454333459690935105, guid: 64798cdedba0b8d4882c9a53162f51ac,
        type: 3}
    - time: 2.6833334
      value: {fileID: 8176789804106870156, guid: 64798cdedba0b8d4882c9a53162f51ac,
        type: 3}
    - time: 2.7166667
      value: {fileID: 4934513762390371471, guid: 64798cdedba0b8d4882c9a53162f51ac,
        type: 3}
    - time: 2.7333333
      value: {fileID: 3530398693622509206, guid: 64798cdedba0b8d4882c9a53162f51ac,
        type: 3}
    - time: 2.7666667
      value: {fileID: 5430795307185721876, guid: 64798cdedba0b8d4882c9a53162f51ac,
        type: 3}
    - time: 2.8
      value: {fileID: 7731125765212912671, guid: 64798cdedba0b8d4882c9a53162f51ac,
        type: 3}
    - time: 2.8333333
      value: {fileID: 2360284596873476859, guid: 64798cdedba0b8d4882c9a53162f51ac,
        type: 3}
    - time: 2.8666666
      value: {fileID: -7431941510851170010, guid: 64798cdedba0b8d4882c9a53162f51ac,
        type: 3}
    - time: 2.8833334
      value: {fileID: -5642998331544458134, guid: 64798cdedba0b8d4882c9a53162f51ac,
        type: 3}
    - time: 2.9166667
      value: {fileID: -7972406677893678857, guid: 64798cdedba0b8d4882c9a53162f51ac,
        type: 3}
    - time: 2.9333334
      value: {fileID: -3953434207255409837, guid: 64798cdedba0b8d4882c9a53162f51ac,
        type: 3}
    - time: 2.9666667
      value: {fileID: 7873611585949754706, guid: 64798cdedba0b8d4882c9a53162f51ac,
        type: 3}
    - time: 3
      value: {fileID: 478497384159092576, guid: 64798cdedba0b8d4882c9a53162f51ac,
        type: 3}
    attribute: m_Sprite
    path: 
    classID: 114
    script: {fileID: 11500000, guid: fe87c0e1cc204ed48ad3b37840f39efc, type: 3}
  m_SampleRate: 60
  m_WrapMode: 0
  m_Bounds:
    m_Center: {x: 0, y: 0, z: 0}
    m_Extent: {x: 0, y: 0, z: 0}
  m_ClipBindingConstant:
    genericBindings:
    - serializedVersion: 2
      path: 0
      attribute: 2015549526
      script: {fileID: 11500000, guid: fe87c0e1cc204ed48ad3b37840f39efc, type: 3}
      typeID: 114
      customType: 0
      isPPtrCurve: 1
    pptrCurveMapping:
    - {fileID: 2487754148215868686, guid: 64798cdedba0b8d4882c9a53162f51ac, type: 3}
    - {fileID: -1752236385213890867, guid: 64798cdedba0b8d4882c9a53162f51ac, type: 3}
    - {fileID: -5983343684865056191, guid: 64798cdedba0b8d4882c9a53162f51ac, type: 3}
    - {fileID: 4333820570023986285, guid: 64798cdedba0b8d4882c9a53162f51ac, type: 3}
    - {fileID: -9180715887612828272, guid: 64798cdedba0b8d4882c9a53162f51ac, type: 3}
    - {fileID: 7794378684071744247, guid: 64798cdedba0b8d4882c9a53162f51ac, type: 3}
    - {fileID: 6659424755888864963, guid: 64798cdedba0b8d4882c9a53162f51ac, type: 3}
    - {fileID: 2156978864914415392, guid: 64798cdedba0b8d4882c9a53162f51ac, type: 3}
    - {fileID: 6402044681676970206, guid: 64798cdedba0b8d4882c9a53162f51ac, type: 3}
    - {fileID: -6416724763220514224, guid: 64798cdedba0b8d4882c9a53162f51ac, type: 3}
    - {fileID: -5282579588933014255, guid: 64798cdedba0b8d4882c9a53162f51ac, type: 3}
    - {fileID: 6896402009188612556, guid: 64798cdedba0b8d4882c9a53162f51ac, type: 3}
    - {fileID: -6870184867666666381, guid: 64798cdedba0b8d4882c9a53162f51ac, type: 3}
    - {fileID: -4988838778518843927, guid: 64798cdedba0b8d4882c9a53162f51ac, type: 3}
    - {fileID: 7546528345229226760, guid: 64798cdedba0b8d4882c9a53162f51ac, type: 3}
    - {fileID: 5691257523857411396, guid: 64798cdedba0b8d4882c9a53162f51ac, type: 3}
    - {fileID: -120243322903028192, guid: 64798cdedba0b8d4882c9a53162f51ac, type: 3}
    - {fileID: -8495512566589673660, guid: 64798cdedba0b8d4882c9a53162f51ac, type: 3}
    - {fileID: -2311157192133985740, guid: 64798cdedba0b8d4882c9a53162f51ac, type: 3}
    - {fileID: -7292720808205259839, guid: 64798cdedba0b8d4882c9a53162f51ac, type: 3}
    - {fileID: -2725349244025016847, guid: 64798cdedba0b8d4882c9a53162f51ac, type: 3}
    - {fileID: 3995766214276383735, guid: 64798cdedba0b8d4882c9a53162f51ac, type: 3}
    - {fileID: -3372447098377642143, guid: 64798cdedba0b8d4882c9a53162f51ac, type: 3}
    - {fileID: 1740735455920979072, guid: 64798cdedba0b8d4882c9a53162f51ac, type: 3}
    - {fileID: 6082213046329472804, guid: 64798cdedba0b8d4882c9a53162f51ac, type: 3}
    - {fileID: 4594983669072474074, guid: 64798cdedba0b8d4882c9a53162f51ac, type: 3}
    - {fileID: -146625182948534648, guid: 64798cdedba0b8d4882c9a53162f51ac, type: 3}
    - {fileID: -2478632237269077653, guid: 64798cdedba0b8d4882c9a53162f51ac, type: 3}
    - {fileID: -2338406735251587364, guid: 64798cdedba0b8d4882c9a53162f51ac, type: 3}
    - {fileID: 1971409929925156218, guid: 64798cdedba0b8d4882c9a53162f51ac, type: 3}
    - {fileID: 4879056601086241424, guid: 64798cdedba0b8d4882c9a53162f51ac, type: 3}
    - {fileID: 6128781798245164473, guid: 64798cdedba0b8d4882c9a53162f51ac, type: 3}
    - {fileID: 5169992912475240710, guid: 64798cdedba0b8d4882c9a53162f51ac, type: 3}
    - {fileID: 5850737461128647746, guid: 64798cdedba0b8d4882c9a53162f51ac, type: 3}
    - {fileID: 3001346115027714168, guid: 64798cdedba0b8d4882c9a53162f51ac, type: 3}
    - {fileID: -2013719390236732632, guid: 64798cdedba0b8d4882c9a53162f51ac, type: 3}
    - {fileID: 1799542987187855350, guid: 64798cdedba0b8d4882c9a53162f51ac, type: 3}
    - {fileID: 77093654333540177, guid: 64798cdedba0b8d4882c9a53162f51ac, type: 3}
    - {fileID: 9026812090178379079, guid: 64798cdedba0b8d4882c9a53162f51ac, type: 3}
    - {fileID: 9057626718661740367, guid: 64798cdedba0b8d4882c9a53162f51ac, type: 3}
    - {fileID: -1093648974269620231, guid: 64798cdedba0b8d4882c9a53162f51ac, type: 3}
    - {fileID: 7861861786514179052, guid: 64798cdedba0b8d4882c9a53162f51ac, type: 3}
    - {fileID: -6040397083618575882, guid: 64798cdedba0b8d4882c9a53162f51ac, type: 3}
    - {fileID: -7485075324523081564, guid: 64798cdedba0b8d4882c9a53162f51ac, type: 3}
    - {fileID: 2611809155775594448, guid: 64798cdedba0b8d4882c9a53162f51ac, type: 3}
    - {fileID: 1524076369786275206, guid: 64798cdedba0b8d4882c9a53162f51ac, type: 3}
    - {fileID: 7989725432498370554, guid: 64798cdedba0b8d4882c9a53162f51ac, type: 3}
    - {fileID: -4316586082909260722, guid: 64798cdedba0b8d4882c9a53162f51ac, type: 3}
    - {fileID: -1852771458194171951, guid: 64798cdedba0b8d4882c9a53162f51ac, type: 3}
    - {fileID: -8495496166773922705, guid: 64798cdedba0b8d4882c9a53162f51ac, type: 3}
    - {fileID: -2617612926524040442, guid: 64798cdedba0b8d4882c9a53162f51ac, type: 3}
    - {fileID: 4216634258757330251, guid: 64798cdedba0b8d4882c9a53162f51ac, type: 3}
    - {fileID: 6029429490672257313, guid: 64798cdedba0b8d4882c9a53162f51ac, type: 3}
    - {fileID: 5669310679631262547, guid: 64798cdedba0b8d4882c9a53162f51ac, type: 3}
    - {fileID: -2878099199796682977, guid: 64798cdedba0b8d4882c9a53162f51ac, type: 3}
    - {fileID: -8422655839970398481, guid: 64798cdedba0b8d4882c9a53162f51ac, type: 3}
    - {fileID: 2436626491380409800, guid: 64798cdedba0b8d4882c9a53162f51ac, type: 3}
    - {fileID: -5730463343630728673, guid: 64798cdedba0b8d4882c9a53162f51ac, type: 3}
    - {fileID: -225672888539882083, guid: 64798cdedba0b8d4882c9a53162f51ac, type: 3}
    - {fileID: -2506006525412237931, guid: 64798cdedba0b8d4882c9a53162f51ac, type: 3}
    - {fileID: 8277163569074396914, guid: 64798cdedba0b8d4882c9a53162f51ac, type: 3}
    - {fileID: -8132208277712497676, guid: 64798cdedba0b8d4882c9a53162f51ac, type: 3}
    - {fileID: 202106001429470132, guid: 64798cdedba0b8d4882c9a53162f51ac, type: 3}
    - {fileID: -2957837931681659194, guid: 64798cdedba0b8d4882c9a53162f51ac, type: 3}
    - {fileID: -2214537748463867011, guid: 64798cdedba0b8d4882c9a53162f51ac, type: 3}
    - {fileID: -6319622435941143836, guid: 64798cdedba0b8d4882c9a53162f51ac, type: 3}
    - {fileID: 3563245788767696609, guid: 64798cdedba0b8d4882c9a53162f51ac, type: 3}
    - {fileID: 6533276907531023680, guid: 64798cdedba0b8d4882c9a53162f51ac, type: 3}
    - {fileID: -8223481185342321410, guid: 64798cdedba0b8d4882c9a53162f51ac, type: 3}
    - {fileID: -194030899506134881, guid: 64798cdedba0b8d4882c9a53162f51ac, type: 3}
    - {fileID: -6054439625797550129, guid: 64798cdedba0b8d4882c9a53162f51ac, type: 3}
    - {fileID: 3833189195797723396, guid: 64798cdedba0b8d4882c9a53162f51ac, type: 3}
    - {fileID: -3392390315800480185, guid: 64798cdedba0b8d4882c9a53162f51ac, type: 3}
    - {fileID: 7410669145442001636, guid: 64798cdedba0b8d4882c9a53162f51ac, type: 3}
    - {fileID: 3786885550895827560, guid: 64798cdedba0b8d4882c9a53162f51ac, type: 3}
    - {fileID: -4049500278435047656, guid: 64798cdedba0b8d4882c9a53162f51ac, type: 3}
    - {fileID: -8899542387541288462, guid: 64798cdedba0b8d4882c9a53162f51ac, type: 3}
    - {fileID: 3229477858549641194, guid: 64798cdedba0b8d4882c9a53162f51ac, type: 3}
    - {fileID: 3682505858544128241, guid: 64798cdedba0b8d4882c9a53162f51ac, type: 3}
    - {fileID: 3302371410307499352, guid: 64798cdedba0b8d4882c9a53162f51ac, type: 3}
    - {fileID: 6839319688245379189, guid: 64798cdedba0b8d4882c9a53162f51ac, type: 3}
    - {fileID: 4685629469326375359, guid: 64798cdedba0b8d4882c9a53162f51ac, type: 3}
    - {fileID: 2066263250108000990, guid: 64798cdedba0b8d4882c9a53162f51ac, type: 3}
    - {fileID: -5379690161182558549, guid: 64798cdedba0b8d4882c9a53162f51ac, type: 3}
    - {fileID: 8526294246602477441, guid: 64798cdedba0b8d4882c9a53162f51ac, type: 3}
    - {fileID: -7847992883779021307, guid: 64798cdedba0b8d4882c9a53162f51ac, type: 3}
    - {fileID: -8250577162285286293, guid: 64798cdedba0b8d4882c9a53162f51ac, type: 3}
    - {fileID: -8130175090938430335, guid: 64798cdedba0b8d4882c9a53162f51ac, type: 3}
    - {fileID: 2469999988579274479, guid: 64798cdedba0b8d4882c9a53162f51ac, type: 3}
    - {fileID: 7323390959281168572, guid: 64798cdedba0b8d4882c9a53162f51ac, type: 3}
    - {fileID: -4815484492146516176, guid: 64798cdedba0b8d4882c9a53162f51ac, type: 3}
    - {fileID: 6856704254578465762, guid: 64798cdedba0b8d4882c9a53162f51ac, type: 3}
    - {fileID: 365334822349498567, guid: 64798cdedba0b8d4882c9a53162f51ac, type: 3}
    - {fileID: -3330877284115568952, guid: 64798cdedba0b8d4882c9a53162f51ac, type: 3}
    - {fileID: 5603607580078803999, guid: 64798cdedba0b8d4882c9a53162f51ac, type: 3}
    - {fileID: 8454333459690935105, guid: 64798cdedba0b8d4882c9a53162f51ac, type: 3}
    - {fileID: 8176789804106870156, guid: 64798cdedba0b8d4882c9a53162f51ac, type: 3}
    - {fileID: 4934513762390371471, guid: 64798cdedba0b8d4882c9a53162f51ac, type: 3}
    - {fileID: 3530398693622509206, guid: 64798cdedba0b8d4882c9a53162f51ac, type: 3}
    - {fileID: 5430795307185721876, guid: 64798cdedba0b8d4882c9a53162f51ac, type: 3}
    - {fileID: 7731125765212912671, guid: 64798cdedba0b8d4882c9a53162f51ac, type: 3}
    - {fileID: 2360284596873476859, guid: 64798cdedba0b8d4882c9a53162f51ac, type: 3}
    - {fileID: -7431941510851170010, guid: 64798cdedba0b8d4882c9a53162f51ac, type: 3}
    - {fileID: -5642998331544458134, guid: 64798cdedba0b8d4882c9a53162f51ac, type: 3}
    - {fileID: -7972406677893678857, guid: 64798cdedba0b8d4882c9a53162f51ac, type: 3}
    - {fileID: -3953434207255409837, guid: 64798cdedba0b8d4882c9a53162f51ac, type: 3}
    - {fileID: 7873611585949754706, guid: 64798cdedba0b8d4882c9a53162f51ac, type: 3}
    - {fileID: 478497384159092576, guid: 64798cdedba0b8d4882c9a53162f51ac, type: 3}
  m_AnimationClipSettings:
    serializedVersion: 2
    m_AdditiveReferencePoseClip: {fileID: 0}
    m_AdditiveReferencePoseTime: 0
    m_StartTime: 0
    m_StopTime: 3.0166667
    m_OrientationOffsetY: 0
    m_Level: 0
    m_CycleOffset: 0
    m_HasAdditiveReferencePose: 0
    m_LoopTime: 1
    m_LoopBlend: 0
    m_LoopBlendOrientation: 0
    m_LoopBlendPositionY: 0
    m_LoopBlendPositionXZ: 0
    m_KeepOriginalOrientation: 0
    m_KeepOriginalPositionY: 1
    m_KeepOriginalPositionXZ: 0
    m_HeightFromFeet: 0
    m_Mirror: 0
  m_EditorCurves: []
  m_EulerEditorCurves: []
  m_HasGenericRootTransform: 0
  m_HasMotionFloatCurves: 0
  m_Events: []
