# This file uses meters as units for non-parametric coordinates.

mtllib Arrow.mtl
g default
v 0.169757 8.425443 0.099100
v 0.187607 7.940009 0.091277
v 0.685157 8.566111 0.108683
v 0.459664 8.756967 0.068781
v 0.456854 8.783388 0.014656
v 0.169283 8.421848 -0.054647
v 0.693498 8.609280 0.030644
v 0.149870 7.874438 -0.035739
v -0.395117 8.777408 0.006934
v -0.169052 8.466580 -0.018664
v -0.178203 7.885984 -0.037366
v -0.625780 8.606569 -0.037584
v -0.190721 7.861002 0.027571
v -0.647762 8.581689 0.049271
v -0.179487 8.435198 0.112593
v -0.402071 8.772144 0.084935
v -0.060849 8.435687 -0.093364
v -0.056486 7.851548 -0.101519
v 0.053987 7.846656 -0.098584
v 0.079007 8.438483 -0.101294
v -0.106504 7.851140 0.111006
v -0.095152 8.417028 0.132296
v 0.040416 8.402342 0.179266
v 0.034966 7.850616 0.154096
v -0.124139 8.855638 0.008573
v -0.031813 8.864464 -0.062095
v 0.106308 8.857524 -0.079531
v 0.143675 8.862336 -0.001902
v -0.073693 8.859222 0.117059
v -0.112821 8.853501 0.083539
v 0.162252 8.845580 0.081359
v 0.105245 8.847177 0.159402
v 0.092314 8.865799 -0.005990
v 0.097392 8.865437 0.077620
v -0.058192 8.865929 0.077674
v -0.055295 8.866594 0.000579
v -0.028893 7.454370 -0.107598
v -0.079049 7.443252 -0.023999
v 0.124202 7.474931 -0.013411
v 0.062277 7.448933 -0.092739
v -0.099590 7.440031 0.032904
v -0.081241 7.418580 0.120923
v 0.043251 7.435112 0.132918
v 0.154975 7.523018 0.058598
v 0.156399 1.093114 0.007625
v 0.070421 1.088893 -0.151813
v -0.036509 1.083659 -0.159653
v -0.139842 1.064947 0.021863
v -0.084293 1.055943 0.095320
v -0.117677 1.087543 -0.091967
v 0.034754 1.062515 0.129006
v 0.104212 1.091187 0.096328
v -0.021872 1.028298 -0.154753
v -0.118551 1.033341 -0.104920
v 0.169513 1.038813 0.014779
v 0.081601 1.037923 -0.136244
v -0.142547 1.016006 0.037723
v -0.066767 1.004353 0.098850
v 0.046935 1.018845 0.117760
v 0.113186 1.036447 0.092471
v 0.182756 0.945268 0.079370
v 0.246831 0.935464 0.003540
v -0.190648 0.946569 -0.102932
v -0.208879 0.953833 -0.043048
v -0.045297 0.938365 -0.110574
v 0.067805 0.947091 -0.099514
v -0.063489 0.905051 0.074567
v 0.049093 0.919221 0.096579
v 0.205085 0.557934 0.071682
v 0.256742 0.547615 -0.002307
v -0.167327 0.559224 -0.102232
v -0.181340 0.567380 -0.056898
v -0.026477 0.551494 -0.104120
v 0.104270 0.544995 -0.085647
v -0.057641 0.545464 0.057061
v 0.052849 0.539061 0.093301
v 0.198037 0.285629 0.059068
v 0.221146 0.271985 -0.011790
v -0.137868 0.294867 -0.089244
v -0.154299 0.299478 -0.065972
v -0.024050 0.277994 -0.107730
v 0.107047 0.271379 -0.092512
v -0.054246 0.272096 0.049516
v 0.055692 0.265636 0.086180
v 0.085894 0.039953 -0.019665
v -0.003001 0.053134 -0.040785
v 0.156882 0.110091 0.000965
v 0.151774 0.116065 0.030590
v 0.075612 0.039032 0.013382
v -0.022093 0.050324 -0.013382
v -0.113973 0.198615 -0.053460
v -0.090706 0.186113 -0.069378
vt 0.976509 0.025572
vt 0.974846 0.021020
vt 0.981801 0.024933
vt 0.980432 0.027573
vt 0.976165 0.028662
vt 0.980791 0.028055
vt 0.976617 0.030128
vt 0.984573 0.030779
vt 0.982397 0.025598
vt 0.990038 0.030619
vt 0.984994 0.017619
vt 0.986453 0.017405
vt 0.791315 0.016413
vt 0.793430 0.013197
vt 0.798881 0.011199
vt 0.793770 0.017962
vt 0.801360 0.021738
vt 0.801183 0.022422
vt 0.793444 0.018832
vt 0.789343 0.026312
vt 0.788803 0.020536
vt 0.790869 0.017058
vt 0.788296 0.014025
vt 0.787377 0.015017
vt 0.937079 0.244752
vt 0.932855 0.248666
vt 0.932214 0.247490
vt 0.936419 0.243505
vt 0.930678 0.245651
vt 0.934750 0.242043
vt 0.935716 0.242670
vt 0.931240 0.246503
vt 0.927183 0.241441
vt 0.931541 0.237707
vt 0.932330 0.238575
vt 0.927853 0.242009
vt 0.933441 0.241565
vt 0.929550 0.244389
vt 0.928820 0.243052
vt 0.933191 0.239744
vt 0.929786 0.251070
vt 0.928964 0.250255
vt 0.928060 0.249208
vt 0.927425 0.248634
vt 0.924471 0.244828
vt 0.924183 0.244402
vt 0.926265 0.246964
vt 0.925678 0.246205
vt 0.930469 0.245608
vt 0.926615 0.247752
vt 0.923614 0.243909
vt 0.925991 0.240821
vt 0.812598 0.018779
vt 0.813196 0.019415
vt 0.812951 0.019872
vt 0.812279 0.019377
vt 0.811626 0.021609
vt 0.811061 0.021100
vt 0.811424 0.020671
vt 0.812083 0.021074
vt 0.811005 0.020582
vt 0.811628 0.018845
vt 0.927630 0.249890
vt 0.929110 0.250903
vt 0.927668 0.250637
vt 0.927157 0.250603
vt 0.939036 0.240583
vt 0.939743 0.241256
vt 0.937635 0.239250
vt 0.938486 0.239847
vt 0.935257 0.235708
vt 0.935971 0.236281
vt 0.936612 0.237363
vt 0.936760 0.238962
vt 0.931012 0.237241
vt 0.934883 0.235238
vt 0.986593 0.199049
vt 0.987758 0.200416
vt 0.988462 0.201214
vt 0.984339 0.195829
vt 0.984982 0.196484
vt 0.983441 0.195077
vt 0.989083 0.202061
vt 0.985702 0.197478
vt 0.985961 0.198248
vt 0.776726 0.017126
vt 0.776451 0.018120
vt 0.775878 0.018083
vt 0.776170 0.017080
vt 0.776149 0.019114
vt 0.775329 0.020677
vt 0.774794 0.020507
vt 0.775609 0.019034
vt 0.759208 0.007243
vt 0.759835 0.006517
vt 0.760101 0.006969
vt 0.759437 0.007745
vt 0.757573 0.008550
vt 0.758275 0.008119
vt 0.758526 0.008515
vt 0.757930 0.008987
vt 0.760410 0.005434
vt 0.760910 0.005674
vt 0.756830 0.009270
vt 0.757213 0.009672
vt 0.758239 0.010112
vt 0.757645 0.010927
vt 0.761737 0.006481
vt 0.761270 0.006884
vt 0.775020 0.017534
vt 0.775604 0.016173
vt 0.773570 0.020460
vt 0.774659 0.018665
vt 0.760189 0.008450
vt 0.759289 0.009216
vt 0.760988 0.012878
vt 0.760520 0.013672
vt 0.764347 0.009329
vt 0.763918 0.009562
vt 0.771383 0.016156
vt 0.772003 0.014899
vt 0.770072 0.018918
vt 0.770789 0.017331
vt 0.762851 0.010882
vt 0.762098 0.011792
vt 0.763151 0.014593
vt 0.762995 0.015334
vt 0.766024 0.011449
vt 0.765740 0.011526
vt 0.768885 0.015059
vt 0.769466 0.014064
vt 0.767683 0.017464
vt 0.768303 0.016224
vt 0.764801 0.012688
vt 0.764103 0.013565
vt 0.766093 0.015238
vt 0.766634 0.014391
vt 0.766386 0.016221
vt 0.764867 0.015234
vt 0.764942 0.015531
vt 0.765895 0.015003
vt 0.766359 0.014241
vt 0.766175 0.012545
vt 0.768231 0.014067
vt 0.766461 0.012691
vn 0.193641 0.096092 0.976355
vn 0.652989 -0.263033 0.710225
vn 0.411608 -0.217371 0.885059
vn -0.163188 0.289724 0.943096
vn 0.054874 0.184354 -0.981327
vn 0.291436 0.065846 -0.954321
vn 0.438412 -0.096142 -0.893617
vn 0.658292 -0.156930 -0.736223
vn 0.162241 0.302088 -0.939372
vn -0.146436 0.144251 -0.978646
vn -0.575809 -0.158373 -0.802099
vn -0.250619 0.016424 -0.967947
vn -0.785219 -0.270395 0.557062
vn -0.485906 -0.184125 0.854396
vn -0.236591 -0.020004 0.971403
vn -0.058188 0.127829 0.990088
vn -0.305497 0.043118 -0.951216
vn -0.309738 -0.018094 -0.950650
vn 0.297957 -0.015997 -0.954445
vn 0.231457 0.023164 -0.972569
vn -0.464384 -0.056340 0.883840
vn -0.365304 0.000434 0.930888
vn 0.084428 -0.002614 0.996426
vn 0.111944 -0.042982 0.992785
vn -0.851020 0.194941 -0.487610
vn -0.308218 0.210616 -0.927708
vn 0.257935 0.159579 -0.952892
vn 0.924094 0.139250 -0.355892
vn -0.292023 0.168352 0.941478
vn -0.856839 0.213061 0.469503
vn 0.931834 0.074160 0.355227
vn 0.157481 0.116111 0.980672
vn 0.043326 0.998893 -0.018334
vn 0.061476 0.992665 0.104098
vn -0.030056 0.995046 0.094764
vn -0.038865 0.999029 -0.020730
vn -0.353899 0.004858 -0.935271
vn -0.870687 -0.000569 -0.491837
vn 0.970133 -0.000820 -0.242574
vn 0.614916 0.005499 -0.788574
vn -0.997396 -0.005724 0.071896
vn -0.555000 -0.003905 0.831841
vn 0.209681 -0.003548 0.977763
vn 0.813874 -0.012842 0.580899
vn 0.954103 0.003980 -0.299454
vn 0.593381 0.006536 -0.804895
vn -0.364337 0.009097 -0.931223
vn -0.991968 0.004990 0.126393
vn -0.540680 -0.000967 0.841228
vn -0.884768 0.008522 -0.465954
vn 0.089896 -0.002283 0.995949
vn 0.764527 0.000210 0.644591
vn -0.063677 -0.241907 -0.968208
vn -0.656250 0.163103 -0.736705
vn 0.931451 0.283601 -0.227969
vn 0.598923 -0.051416 -0.799155
vn -0.842490 0.026110 0.538078
vn -0.414774 -0.192041 0.889428
vn 0.052210 -0.142962 0.988350
vn 0.525424 0.112893 0.843318
vn 0.464387 0.065138 0.883234
vn 0.857576 0.074161 -0.508982
vn -0.455184 0.076599 -0.887096
vn -0.870907 0.059237 0.487865
vn 0.018146 -0.054497 -0.998349
vn 0.379574 -0.015067 -0.925039
vn -0.507831 -0.079541 0.857777
vn -0.009702 -0.045436 0.998920
vn 0.447369 -0.019604 0.894135
vn 0.839724 -0.000287 -0.543013
vn -0.310455 -0.033671 -0.949992
vn -0.831303 -0.070643 0.551312
vn 0.034842 -0.008921 -0.999353
vn 0.358231 0.006579 -0.933610
vn -0.534651 -0.049890 0.843599
vn -0.038362 -0.026059 0.998924
vn 0.464629 -0.124848 0.876660
vn 0.814753 -0.136272 -0.563567
vn -0.271883 -0.104718 -0.956616
vn -0.839586 -0.126386 0.528320
vn 0.025165 -0.107512 -0.993885
vn 0.343413 -0.108468 -0.932900
vn -0.544665 -0.144489 0.826113
vn -0.069742 -0.142010 0.987405
vn 0.305871 -0.427080 -0.850909
vn -0.001763 -0.413869 -0.910335
vn 0.715665 -0.380657 -0.585597
vn 0.385847 -0.328959 0.861921
vn -0.094555 -0.430346 0.897698
vn -0.493019 -0.437810 0.751834
vn -0.815321 -0.325770 0.478671
vn -0.295828 -0.351562 -0.888195
s 1
g Arrow
usemtl initialShadingGroup
f 1/1/1 2/2/2 3/3/3 4/4/4
f 1/5/1 4/4/4 5/6/5 6/7/6
f 6/8/6 5/6/5 7/9/7 8/10/8
f 3/3/3 2/11/2 8/12/8 7/9/7
f 4/4/4 3/3/3 7/9/7 5/6/5
f 9/13/9 10/14/10 11/15/11 12/16/12
f 12/16/12 11/17/11 13/18/13 14/19/14
f 14/19/14 13/20/13 15/21/15 16/22/16
f 10/23/10 9/13/9 16/22/16 15/24/15
f 14/19/14 16/22/16 9/13/9 12/16/12
f 11/25/11 10/26/10 17/27/17 18/28/18
f 6/29/6 8/30/8 19/31/19 20/32/20
f 20/32/20 19/31/19 18/28/18 17/27/17
f 15/33/15 13/34/13 21/35/21 22/36/22
f 2/37/2 1/38/1 23/39/23 24/40/24
f 24/40/24 23/39/23 22/36/22 21/35/21
f 17/27/17 10/26/10 25/41/25 26/42/26
f 6/29/6 20/32/20 27/43/27 28/44/28
f 20/32/20 17/27/17 26/42/26 27/43/27
f 15/33/15 22/36/22 29/45/29 30/46/30
f 23/39/23 1/38/1 31/47/31 32/48/32
f 22/36/22 23/39/23 32/48/32 29/45/29
f 31/47/31 1/38/1 6/49/6 28/50/28
f 25/51/25 10/52/10 15/33/15 30/46/30
f 31/53/31 28/54/28 33/55/33 34/56/34
f 25/57/25 30/58/30 35/59/35 36/60/36
f 29/61/29 32/62/32 34/56/34 35/59/35
f 27/63/27 26/42/26 36/64/36 33/65/33
f 33/55/33 36/60/36 35/59/35 34/56/34
f 27/63/27 33/65/33 28/66/28
f 26/42/26 25/41/25 36/64/36
f 30/58/30 29/61/29 35/59/35
f 32/62/32 31/53/31 34/56/34
f 11/25/11 18/28/18 37/67/37 38/68/38
f 19/31/19 8/30/8 39/69/39 40/70/40
f 18/28/18 19/31/19 40/70/40 37/67/37
f 21/35/21 13/34/13 41/71/41 42/72/42
f 2/37/2 24/40/24 43/73/43 44/74/44
f 24/40/24 21/35/21 42/72/42 43/73/43
f 11/75/11 38/76/38 41/71/41 13/34/13
f 39/69/39 8/30/8 2/37/2 44/74/44
f 40/70/40 39/69/39 45/77/45 46/78/46
f 37/67/37 40/70/40 46/78/46 47/79/47
f 42/72/42 41/71/41 48/80/48 49/81/49
f 41/71/41 38/76/38 50/82/50 48/80/48
f 37/67/37 47/79/47 50/83/50 38/68/38
f 43/73/43 51/84/51 52/85/52 44/74/44
f 42/72/42 49/81/49 51/84/51 43/73/43
f 44/74/44 52/85/52 45/77/45 39/69/39
f 50/86/50 47/87/47 53/88/53 54/89/54
f 46/90/46 45/91/45 55/92/55 56/93/56
f 47/87/47 46/90/46 56/93/56 53/88/53
f 49/94/49 48/95/48 57/96/57 58/97/58
f 52/98/52 51/99/51 59/100/59 60/101/60
f 51/99/51 49/94/49 58/97/58 59/100/59
f 48/95/48 50/102/50 54/103/54 57/96/57
f 45/104/45 52/98/52 60/101/60 55/105/55
f 55/105/55 60/101/60 61/106/61 62/107/62
f 57/96/57 54/103/54 63/108/63 64/109/64
f 54/89/54 53/88/53 65/110/65 63/111/63
f 56/93/56 55/92/55 62/112/62 66/113/66
f 53/88/53 56/93/56 66/113/66 65/110/65
f 58/97/58 57/96/57 64/109/64 67/114/67
f 60/101/60 59/100/59 68/115/68 61/106/61
f 59/100/59 58/97/58 67/114/67 68/115/68
f 62/107/62 61/106/61 69/116/69 70/117/70
f 64/109/64 63/108/63 71/118/71 72/119/72
f 63/111/63 65/110/65 73/120/73 71/121/71
f 66/113/66 62/112/62 70/122/70 74/123/74
f 65/110/65 66/113/66 74/123/74 73/120/73
f 67/114/67 64/109/64 72/119/72 75/124/75
f 61/106/61 68/115/68 76/125/76 69/116/69
f 68/115/68 67/114/67 75/124/75 76/125/76
f 70/117/70 69/116/69 77/126/77 78/127/78
f 72/119/72 71/118/71 79/128/79 80/129/80
f 71/121/71 73/120/73 81/130/81 79/131/79
f 74/123/74 70/122/70 78/132/78 82/133/82
f 73/120/73 74/123/74 82/133/82 81/130/81
f 75/124/75 72/119/72 80/129/80 83/134/83
f 69/116/69 76/125/76 84/135/84 77/126/77
f 76/125/76 75/124/75 83/134/83 84/135/84
f 81/130/81 82/133/82 85/136/85 86/137/86
f 82/133/82 78/132/78 87/138/87 85/136/85
f 78/127/78 77/126/77 88/139/88 87/140/87
f 77/126/77 84/135/84 89/141/89 88/139/88
f 88/139/88 89/141/89 85/136/85 87/140/87
f 84/135/84 83/134/83 90/142/90 89/141/89
f 86/137/86 85/136/85 89/141/89 90/142/90
f 83/134/83 80/129/80 91/143/91 90/142/90
f 79/131/79 81/130/81 86/137/86 92/144/92
f 79/128/79 92/145/92 91/143/91 80/129/80
f 92/145/92 86/137/86 90/142/90 91/143/91
