%YAML 1.1
%TAG !u! tag:unity3d.com,2011:
--- !u!1 &2284884375135610368
GameObject:
  m_ObjectHideFlags: 0
  m_CorrespondingSourceObject: {fileID: 0}
  m_PrefabInstance: {fileID: 0}
  m_PrefabAsset: {fileID: 0}
  serializedVersion: 6
  m_Component:
  - component: {fileID: 5103596845177308158}
  m_Layer: 0
  m_Name: BarrelStylized
  m_TagString: Untagged
  m_Icon: {fileID: 0}
  m_NavMeshLayer: 0
  m_StaticEditorFlags: 0
  m_IsActive: 1
--- !u!4 &5103596845177308158
Transform:
  m_ObjectHideFlags: 0
  m_CorrespondingSourceObject: {fileID: 0}
  m_PrefabInstance: {fileID: 0}
  m_PrefabAsset: {fileID: 0}
  m_GameObject: {fileID: 2284884375135610368}
  m_LocalRotation: {x: -0, y: -0, z: -0, w: 1}
  m_LocalPosition: {x: -14.213, y: 2.314, z: 11.37}
  m_LocalScale: {x: 1, y: 1, z: 1}
  m_Children:
  - {fileID: 7627109536297322260}
  m_Father: {fileID: 0}
  m_RootOrder: 0
  m_LocalEulerAnglesHint: {x: 0, y: 0, z: 0}
--- !u!1001 &3216233655058213902
PrefabInstance:
  m_ObjectHideFlags: 0
  serializedVersion: 2
  m_Modification:
    m_TransformParent: {fileID: 5103596845177308158}
    m_Modifications:
    - target: {fileID: -927199367670048503, guid: 99c2592a5f107ef43b61b29ade96d3ff,
        type: 3}
      propertyPath: m_Name
      value: BarrelStylizedLow
      objectReference: {fileID: 0}
    - target: {fileID: -4216859302048453862, guid: 99c2592a5f107ef43b61b29ade96d3ff,
        type: 3}
      propertyPath: m_LocalPosition.x
      value: 5.342
      objectReference: {fileID: 0}
    - target: {fileID: -4216859302048453862, guid: 99c2592a5f107ef43b61b29ade96d3ff,
        type: 3}
      propertyPath: m_LocalPosition.y
      value: 0
      objectReference: {fileID: 0}
    - target: {fileID: -4216859302048453862, guid: 99c2592a5f107ef43b61b29ade96d3ff,
        type: 3}
      propertyPath: m_LocalPosition.z
      value: 0
      objectReference: {fileID: 0}
    - target: {fileID: -4216859302048453862, guid: 99c2592a5f107ef43b61b29ade96d3ff,
        type: 3}
      propertyPath: m_LocalRotation.x
      value: -0
      objectReference: {fileID: 0}
    - target: {fileID: -4216859302048453862, guid: 99c2592a5f107ef43b61b29ade96d3ff,
        type: 3}
      propertyPath: m_LocalRotation.y
      value: -0
      objectReference: {fileID: 0}
    - target: {fileID: -4216859302048453862, guid: 99c2592a5f107ef43b61b29ade96d3ff,
        type: 3}
      propertyPath: m_LocalRotation.z
      value: -0
      objectReference: {fileID: 0}
    - target: {fileID: -4216859302048453862, guid: 99c2592a5f107ef43b61b29ade96d3ff,
        type: 3}
      propertyPath: m_LocalRotation.w
      value: 1
      objectReference: {fileID: 0}
    - target: {fileID: -4216859302048453862, guid: 99c2592a5f107ef43b61b29ade96d3ff,
        type: 3}
      propertyPath: m_RootOrder
      value: 0
      objectReference: {fileID: 0}
    - target: {fileID: -4216859302048453862, guid: 99c2592a5f107ef43b61b29ade96d3ff,
        type: 3}
      propertyPath: m_LocalEulerAnglesHint.x
      value: 0
      objectReference: {fileID: 0}
    - target: {fileID: -4216859302048453862, guid: 99c2592a5f107ef43b61b29ade96d3ff,
        type: 3}
      propertyPath: m_LocalEulerAnglesHint.y
      value: 0
      objectReference: {fileID: 0}
    - target: {fileID: -4216859302048453862, guid: 99c2592a5f107ef43b61b29ade96d3ff,
        type: 3}
      propertyPath: m_LocalEulerAnglesHint.z
      value: 0
      objectReference: {fileID: 0}
    - target: {fileID: -4216859302048453862, guid: 99c2592a5f107ef43b61b29ade96d3ff,
        type: 3}
      propertyPath: m_LocalScale.x
      value: 0.722025
      objectReference: {fileID: 0}
    - target: {fileID: -4216859302048453862, guid: 99c2592a5f107ef43b61b29ade96d3ff,
        type: 3}
      propertyPath: m_LocalScale.y
      value: 0.722025
      objectReference: {fileID: 0}
    - target: {fileID: -4216859302048453862, guid: 99c2592a5f107ef43b61b29ade96d3ff,
        type: 3}
      propertyPath: m_LocalScale.z
      value: 0.722025
      objectReference: {fileID: 0}
    - target: {fileID: -1504981713932161579, guid: 99c2592a5f107ef43b61b29ade96d3ff,
        type: 3}
      propertyPath: m_Materials.Array.data[0]
      value: 
      objectReference: {fileID: 2100000, guid: 73107177967b21a4e9da8b5fdfdecbdc, type: 2}
    m_RemovedComponents: []
  m_SourcePrefab: {fileID: 100100000, guid: 99c2592a5f107ef43b61b29ade96d3ff, type: 3}
--- !u!4 &7627109536297322260 stripped
Transform:
  m_CorrespondingSourceObject: {fileID: -4216859302048453862, guid: 99c2592a5f107ef43b61b29ade96d3ff,
    type: 3}
  m_PrefabInstance: {fileID: 3216233655058213902}
  m_PrefabAsset: {fileID: 0}
